<?xml version="1.0" encoding="utf-8"?>
<!-- Generator: Adobe Illustrator 19.0.1, SVG Export Plug-In . SVG Version: 6.00 Build 0)  -->
<svg version="1.1" id="Layer_1" xmlns="http://www.w3.org/2000/svg" xmlns:xlink="http://www.w3.org/1999/xlink" x="0px" y="0px"
	 viewBox="0 0 294 165" enable-background="new 0 0 294 165" xml:space="preserve">
<path id="path103000" fill="#FFFFFF" d="M215.8,6.8c37.9,0,68.8,31.1,68.8,69.2c0,38.1-30.9,69.2-68.8,69.2S147,114.1,147,76
	C147,37.9,177.9,6.8,215.8,6.8"/>
<path id="path103004" fill="none" stroke="#231F20" stroke-width="4.6062" stroke-miterlimit="2.613" d="M215.8,6.8
	c37.9,0,68.8,31.1,68.8,69.2c0,38.1-30.9,69.2-68.8,69.2S147,114.1,147,76C147,37.9,177.9,6.8,215.8,6.8z"/>
<path id="path103008" fill="#231F20" d="M157.8,93.5c-2.6,1.5-3.7,4.7-2.4,7.6c1.8,4,6,5.1,9.7,3.5c3.7-1.6,5.8-5.3,4-9.1
	c-1.3-2.9-4.2-4.2-7.5-3.2l0.8,2.2c1.9-0.7,4,0,4.9,2c1.2,2.8-0.9,4.8-3.4,5.9c-2.5,1.1-5.3,0.7-6.5-2c-0.8-1.9-0.1-3.4,1.2-4.4
	L157.8,93.5L157.8,93.5z M151,84.6c0.5,4.2,4.3,6.6,8.3,6c4-0.6,6.9-3.4,6.3-7.6c-0.6-4.2-4-5.9-8-5.7
	C153.7,77.5,150.5,80.4,151,84.6 M153,84.3c-0.3-3,2-4.4,4.7-4.7c2.7-0.3,5.5,0.7,5.9,3.7c0.4,3-2.2,4.4-4.8,4.9
	C156.1,88.5,153.4,87.3,153,84.3 M164.9,75.7l0.1-2.2l-10.6-1l11-2.8l0.2-2l-10.2-6.1l11,2.1l0.6-2.2l-14.2-2.8l-0.7,3.3l10.3,6.1
	l0,0l-11.6,2.6l-0.2,3.8L164.9,75.7L164.9,75.7z M167.6,59.8l0.8-2.3l-13.4-5l-0.8,2.3C154.2,54.8,167.6,59.8,167.6,59.8z
	 M157.8,51.1l2.1-4l10.2,6.4l1.2-2.2l-10.2-6.4l2.2-4l-1.8-1.1l-5.7,10.4C155.9,50.2,157.8,51.1,157.8,51.1z M173.8,47l6.5-7.7
	l-1.5-1.5l-5,6l-3.2-2.9l4.4-5.4l-1.4-1.4l-4.6,5.4l-2.8-2.6l5-5.7l-1.5-1.6l-6.6,7.8L173.8,47L173.8,47z M188,33.1l2.1-1.3
	l-7.5-12.2l-2.1,1.3L188,33.1L188,33.1z M192,30.7l2.1-1l-4.2-9.6l0.1,0l9.5,7.3l2.5-0.7L197.6,13l-2.3,0.7l3.1,10.2l-0.1,0
	l-9.6-7.6l-2.4,1.2L192,30.7L192,30.7z M199.8,14.7l4.2-0.7l1.8,11.7l2.4-0.4l-1.8-11.7l4.4-0.8l-0.2-2.2l-11.4,1.9L199.8,14.7
	L199.8,14.7z M213.1,24.9l10.2,0.4l0-2.1l-7.8-0.3l0.1-4.3l7.1,0.2l0-2l-7.1-0.2l0.1-3.8l7.6,0.4l0-2.1l-10-0.4L213.1,24.9
	L213.1,24.9z M230.3,14.2l3.9,1.1c1.2,0.3,2.1,1.2,1.6,2.9c-0.4,1.4-1.3,1.9-2.8,1.5l-4-1.1C229,18.5,230.3,14.2,230.3,14.2z
	 M224.7,25.5l2.2,0.5l1.6-5.7l3.6,1c2.2,0.6,2.2,1.9,1.5,4.4c-0.2,0.7-0.4,1.5-0.2,2.2l2.5,1c-0.4-0.7-0.1-2.6,0.3-4.1
	c0.6-2.1-0.3-3.1-1-3.4l0,0c0.5,0,2.3-0.2,3.1-2.8c0.7-2.3-0.3-4.3-3.3-5.1l-6.5-1.8L224.7,25.5L224.7,25.5z M236.9,29.3l2.2,1
	l4.8-9.1l0.1,0l0.8,12.5l2,1.5l7.7-12.1l-2-1.5l-5.7,9L246,17.8l-2.4-1.2L236.9,29.3L236.9,29.3z M260.4,31.6L260.4,31.6L260.4,31.6
	l-2.8,6.2l-3-3.1L260.4,31.6L260.4,31.6z M247.3,35.7l2,1.7l3.6-1.9l3.9,4l-1.7,3.9l1.6,2l6.4-14.7l-1.9-1.8L247.3,35.7L247.3,35.7z
	 M265,36.4l2.3,3.4l-10,6.7l1.3,2.1l10-6.7l2.5,3.7l1.8-1.1l-6.3-9.4L265,36.4L265,36.4z M261.2,52.9l1,2.2l13-6.2l-1-2.2
	L261.2,52.9L261.2,52.9z M279,58.7c-1.1-4-5.1-5.7-8.9-4.4c-3.8,1.3-6.4,4.6-5.3,8.7c1.1,4,4.9,5.4,8.8,4.3
	C277.5,66.2,280.1,62.7,279,58.7 M277,59.3c0.8,2.8-1.5,5-4.1,5.7c-2.6,0.7-5.4,0.2-6.2-2.6c-0.8-2.9,1.5-5,4.1-5.8
	C273.4,55.8,276.2,56.4,277,59.3 M266.5,70.4l0.1,2.4l10.4-0.6v0.1l-10.4,6.9l-0.1,2.6l14.2,1.2l0.2-2.7l-10.6-0.7v-0.2l10.7-7
	l-0.2-2.8L266.5,70.4L266.5,70.4z M276.4,92.7L276.4,92.7L276.4,92.7l-6.7,0.2l1.2-4.1L276.4,92.7L276.4,92.7z M266.3,82.9l-0.4,2.5
	l3.3,2.1l-1.6,5.4l-3.9,0.2l-0.9,2.5l15.4-1.1l0.7-2.5L266.3,82.9L266.3,82.9z M262.4,96.9l-4.7,8.4l1.9,1l3.5-6.3l10.7,6l1.2-2.2
	L262.4,96.9"/>
<path id="path103012" fill="#231F20" d="M247.8,133.3l8.3-5.7l-1.2-1.8l-6.3,4.4l-2.4-3.5l5.7-4.1l-1.1-1.7l-5.7,4.1l-2.1-3.3
	l6.2-4.3l-1.2-1.8l-8.3,5.7L247.8,133.3L247.8,133.3z"/>
<path id="path103016" fill="#231F20" d="M237.1,138.2l2.6-0.9l-0.8-15.5l-2.2,1l0.8,12.2l0,0l-7.5-9.7l-2.4,0.7L237.1,138.2
	L237.1,138.2z"/>
<path id="path103020" fill="#231F20" d="M218.9,141.6l10-1.2l-0.4-2.1l-7.5,0.9l-0.5-4.3l6.6-0.8l-0.4-2l-6.5,0.8l-0.4-3.9l7.3-0.7
	l-0.4-2.1l-9.3,1.1L218.9,141.6L218.9,141.6z"/>
<path id="path103024" fill="#231F20" d="M188.1,135.4l9.5,3.6l0.5-2.1l-7-2.6l1.4-4.1l6.3,2.4l0.5-1.9l-6.2-2.4l1.3-3.8l6.8,2.8
	l0.5-2l-8.8-3.5L188.1,135.4L188.1,135.4z"/>
<path id="path103028" fill="#231F20" d="M188.3,127l-5-3.2l-1,1.5l3.3,2.1c-1.4,1.9-3.5,2.4-5.6,0.9c-2.5-1.8-2-4.8-0.5-7
	c1.5-2.2,4-3.6,6.5-1.8c1.5,1,2.3,2.7,1.4,4.4l2.1,1.2c1.5-2.8,0.1-5.5-2.4-7.2c-3.5-2.5-7.4-1.3-9.6,2c-2.2,3.3-2.1,7.6,1.4,10
	c1.4,1,2.7,1.2,4.7,0.7l-0.3,2l1.3,0.8L188.3,127"/>
<path id="path103032" fill="#231F20" d="M201.5,140l2.4,0.5l1.9-10.5l0.1,0l5.6,11.4l2.6,0.1l0.7-14.4l-2.2-0.1l-0.4,10.6l0,0
	l-5.6-11.4l-2.5-0.5L201.5,140L201.5,140z"/>
<path id="path103036" fill="none" stroke="#231F20" stroke-width="4.6062" stroke-miterlimit="2.613" d="M215.8,28.5
	c26,0,47.3,21.4,47.3,47.5s-21.2,47.5-47.3,47.5c-26,0-47.2-21.4-47.2-47.5S189.8,28.5,215.8,28.5z"/>
<path id="path103040" fill="#ED1C24" d="M205.8,65.9V41.7h20v24.2h24.1v20.2h-24.1v24.2h-20V86.1h-24.1V65.9H205.8L205.8,65.9z"/>
<path id="path103042" fill="#231F20" d="M10.2,62.2H15v41.6h-4.8V62.2L10.2,62.2z"/>
<path id="path103046" fill="#231F20" d="M48.5,74.7c-1-5.9-5.1-8.8-10.1-8.8c-8.6,0-12.2,8.1-12.2,16.8c0,9.5,3.6,17.4,12.3,17.4
	c6.3,0,10-5.1,10.4-12h4.8c-0.9,10.4-6.5,16.7-15.6,16.7c-11.2,0-16.7-9.5-16.7-21.7c0-12.1,6-21.9,17.1-21.9
	c7.5,0,13.8,4.7,14.9,13.5H48.5"/>
<path id="path103050" fill="#231F20" d="M64.5,81.4V66.9h11.9c4.5,0,6.4,3,6.4,7.1c0,6.1-3.8,7.4-8.3,7.4H64.5z M59.6,103.8h4.8V86
	h11.7c4.7,0,5.5,3.4,6,7.5c0.7,4.1,0,8.6,1.3,10.2h5.4c-2-2.9-1.8-7.4-2.1-11.5c-0.4-4.1-1.2-7.6-5.4-8.6v-0.1
	c4.4-1.4,6.3-5.5,6.3-10.5c0-6.6-4.2-10.9-11-10.9h-17L59.6,103.8"/>
<path id="path103054" fill="#231F20" d="M119.7,74.7c-1-5.9-5.1-8.8-10.1-8.8c-8.6,0-12.2,8.1-12.2,16.8c0,9.5,3.6,17.4,12.3,17.4
	c6.3,0,10-5.1,10.4-12h4.8c-0.9,10.4-6.5,16.7-15.6,16.7c-11.2,0-16.7-9.5-16.7-21.7c0-12.1,6-21.9,17.1-21.9
	c7.5,0,13.8,4.7,14.9,13.5H119.7"/>
</svg>
