<?xml version="1.0" encoding="utf-8"?>
<!-- Generator: Adobe Illustrator 19.0.1, SVG Export Plug-In . SVG Version: 6.00 Build 0)  -->
<svg version="1.1" id="Layer_1" xmlns="http://www.w3.org/2000/svg" xmlns:xlink="http://www.w3.org/1999/xlink" x="0px" y="0px"
	 viewBox="0 0 294 165" enable-background="new 0 0 294 165" xml:space="preserve">
<g id="layer1" transform="translate(-344.30793,-520.33606)">
	<g id="g2262" transform="matrix(1.25,0,0,-1.25,-320.23294,579.39106)">
		<g>
			<defs>
				<rect id="SVGID_1_" x="502.2" y="-71.5" width="294" height="132"/>
			</defs>
			<clipPath id="SVGID_2_">
				<use xlink:href="#SVGID_1_"  overflow="visible"/>
			</clipPath>
			<g id="g2264" clip-path="url(#SVGID_2_)">
				<g id="g2270" transform="translate(541.3547,35.3694)">
					<path id="path2272" d="M57.3-42.4v-14.1H61V-45c1.2,1.1,2.1,0.7,4.5-1.4l1.5,3.5c-0.7,0.3-1.7,0.7-3,0.7
						c-1.4,0-2.4-0.7-2.9-1.3l-0.2-0.2l0,0l0,1.3H57.3z M72.1-34.9h-3.6v-21.6h3.6C72.1-56.5,72.1-34.9,72.1-34.9z M40.2-49.4
						c0-3.9,2.7-7.2,7.2-7.2c4.4,0,7.2,3.3,7.2,7.2s-2.7,7.2-7.2,7.2C42.9-42.2,40.2-45.5,40.2-49.4 M116.5-42.4h-3.6v-14.1h3.6
						V-42.4z M132.2-42.4v-7.9c0-4,1.6-6.6,9.3-6.6c8.9,0,12.1,3.7,12.1,7.7c0,4-3,7.1-7.1,7.1c-4.5,0-7-3.2-7-6.4
						c0-2.3,1.3-4.7,4.2-6l0.9,1.1c-1.2,1.4-1.6,3.1-1.6,4.6c0,2.8,1.6,5.2,3.5,5.2c2.4,0,3.5-2.9,3.5-5.8c0-3-1-6.3-7.5-6.3
						c-5.1,0-6.6,1.1-6.6,4.5v8.9C135.8-42.4,132.2-42.4,132.2-42.4z M134.1-36c-1.1,0-1.9-0.9-1.9-2.1c0-1.2,0.8-2.1,1.9-2.1
						c1.1,0,1.9,0.9,1.9,2.1C136-36.9,135.1-36,134.1-36 M115.2-36c-1.1,0-1.9-0.9-1.9-2.1c0-1.2,0.8-2.1,1.9-2.1
						c1.1,0,1.9,0.9,1.9,2.1C117.1-36.9,116.2-36,115.2-36 M119.5-46.3c-0.4-5.4,7-4.1,6.8-7.4c-0.1-1.3-1.2-1.8-2.3-1.7
						c-1.8,0.2-2.9,1.3-3.9,2.5l-1.1-2.6c1.5-0.9,3.1-1.4,4.5-1.5c3.2-0.2,5.8,1.2,6,4.5c0.3,5.1-7.3,4.4-7.2,7
						c0.1,1.1,1.3,1.7,2.5,1.6c1.3-0.1,2.2-0.9,3.3-1.9l1,2.3c-1.4,0.6-2.7,0.9-3.8,1.1C121.9-42,119.6-44,119.5-46.3 M81.5-56.8
						c1.7,0,3.1,0.6,4.4,1.7l0.1,0v-1.3h3.4v21.6h-3.6v-8.6c-1,0.8-2.6,1.3-4.1,1.3c-2,0-6.8-1.3-6.8-7.5
						C74.8-54.3,78.6-56.8,81.5-56.8 M102.9-56.5h1.5l7.7,18.9h-2l-5.4-13.3l-5.3,13.3h-4.4L102.9-56.5z M169.9-56.5v7.8
						c0,5.3-3.8,6.6-6,6.6c-1.6,0-2.9-0.6-4.2-1.6l-0.1,0v1.4h-3.4v-14.1h3.6v11.4c1.1,1,2.1,1.4,3,1.4c1.9,0,3.3-2,3.3-4.2v-8.6
						H169.9z M30.7-39.3h-2.1l-4.1-11.4L20-37.6h-4.2l6.6-18.8h2l4.2,11.6l4.2-11.6h2l6.6,18.8h-2l-4.6-13.1
						C34.8-50.8,30.7-39.3,30.7-39.3z M50.6-49.4c0-3.3-1-5.9-3.3-5.9S44-52.7,44-49.4c0,3.3,1,5.9,3.3,5.9S50.6-46.2,50.6-49.4
						 M85.7-45.2v-8.5c-0.9-0.9-1.8-1.5-3.2-1.5c-1.6,0-3.7,1.5-3.7,5.7C78.8-44.9,82.1-41.6,85.7-45.2"/>
				</g>
				<g id="g2274" transform="translate(549.043,47.1402)">
					<path id="path2276" fill="#F3912D" d="M82.5-0.4c-0.1,0-0.2,0.1-0.2,0.2s0.1,0.2,0.2,0.2h135.3v-87.9
						C186.7-40.9,138.2-8.2,82.5-0.4"/>
				</g>
				<g id="g2278" transform="translate(575.2813,34.9932)">
					<path id="path2280" fill="#F3912D" d="M168.2-43.7c1.4,22.1,2.5,21.3,6.6,25.3c2.6,2.5,0.4,5.6,11.2,6.4
						c-11.5,0.9-6.9,2.4-11.5,6.9c-4.2,4.1-5.5,0-6.3,11.8c-0.7-11.8-1.5-6.7-6-11.6c-4.9-5.4,0.6-6-11.8-7c12.2-1,7.4-2.9,11.3-6.8
						C166.5-23.4,166.8-21.1,168.2-43.7"/>
				</g>
				<g id="g2282" transform="translate(575.2813,34.994)">
					<path id="path2284" fill="#F3912E" d="M168.2-43.7c1.4,22.1,2.5,21.3,6.6,25.4c2.6,2.5,0.4,5.6,11.2,6.4
						c-11.5,0.9-7,2.4-11.5,6.9c-4.2,4.1-5.5,0-6.3,11.8c-0.7-11.8-1.5-6.7-6-11.7c-4.9-5.4,0.6-6-11.8-7c12.2-1,7.5-2.9,11.3-6.7
						C166.5-23.4,166.8-21.1,168.2-43.7"/>
				</g>
				<g id="g2286" transform="translate(575.2813,34.9948)">
					<path id="path2288" fill="#F3922F" d="M168.2-43.7c1.4,22.1,2.5,21.3,6.5,25.4c2.5,2.5,0.4,5.5,11.2,6.4
						c-11.5,0.9-7,2.4-11.5,6.9C170.3-1,169-5,168.2,6.7c-0.7-11.8-1.5-6.7-6-11.7c-4.9-5.4,0.6-6-11.8-7c12.2-1,7.5-2.9,11.3-6.7
						C166.5-23.4,166.8-21.1,168.2-43.7"/>
				</g>
				<g id="g2290" transform="translate(575.2813,34.9957)">
					<path id="path2292" fill="#F39231" d="M168.2-43.7c1.4,22.1,2.4,21.3,6.5,25.4c2.5,2.5,0.5,5.5,11.2,6.4
						c-11.5,0.9-7,2.4-11.5,6.8c-4.1,4.1-5.5,0.1-6.2,11.8c-0.7-11.7-1.5-6.8-6-11.7c-4.8-5.3,0.5-6-11.8-7c12.1-1,7.5-2.9,11.3-6.7
						C166.5-23.3,166.8-21.2,168.2-43.7"/>
				</g>
				<g id="g2294" transform="translate(575.2813,34.9965)">
					<path id="path2296" fill="#F39332" d="M168.2-43.7c1.4,22,2.4,21.4,6.5,25.4c2.5,2.5,0.5,5.5,11.2,6.4
						c-11.5,0.9-7,2.4-11.5,6.8c-4.1,4-5.5,0.1-6.2,11.8C167.5-5,166.7-0.1,162.3-5c-4.8-5.3,0.5-6-11.8-6.9
						c12.1-1,7.5-2.9,11.3-6.7C166.5-23.3,166.8-21.2,168.2-43.7"/>
				</g>
				<g id="g2298" transform="translate(575.2813,34.9973)">
					<path id="path2300" fill="#F39332" d="M168.2-43.7c1.4,22,2.4,21.4,6.5,25.4c2.5,2.5,0.5,5.5,11.3,6.3
						c-11.4,0.9-7.1,2.4-11.6,6.8c-4.1,4-5.5,0.2-6.2,11.8C167.5-5,166.7-0.1,162.3-5c-4.8-5.3,0.5-6-11.8-6.9
						c12.1-1,7.6-2.9,11.4-6.7C166.5-23.3,166.8-21.2,168.2-43.7"/>
				</g>
				<g id="g2302" transform="translate(575.2813,34.9981)">
					<path id="path2304" fill="#F39433" d="M168.2-43.7c1.4,22,2.4,21.4,6.5,25.4c2.5,2.5,0.6,5.5,11.3,6.3
						c-11.4,0.9-7.1,2.4-11.6,6.8c-4.1,4-5.4,0.2-6.2,11.9C167.5-5,166.8-0.2,162.3-5c-4.8-5.3,0.5-5.9-11.8-6.9
						c12.1-1,7.6-2.9,11.4-6.6C166.5-23.2,166.8-21.3,168.2-43.7"/>
				</g>
				<g id="g2306" transform="translate(575.2813,34.9989)">
					<path id="path2308" fill="#F49534" d="M168.2-43.7c1.4,21.9,2.4,21.4,6.5,25.4c2.5,2.5,0.6,5.5,11.3,6.3
						c-11.4,0.9-7.1,2.4-11.6,6.8c-4.1,4-5.4,0.2-6.2,11.9c-0.7-11.7-1.5-6.9-5.9-11.7c-4.8-5.3,0.4-5.9-11.8-6.9
						c12.1-1,7.6-2.9,11.4-6.6C166.5-23.2,166.8-21.3,168.2-43.7"/>
				</g>
				<g id="g2310" transform="translate(575.2813,34.9997)">
					<path id="path2312" fill="#F49535" d="M168.2-43.7c1.4,21.9,2.4,21.5,6.4,25.5c2.5,2.5,0.6,5.4,11.3,6.3
						c-11.4,0.9-7.1,2.4-11.6,6.7c-4.1,4-5.4,0.3-6.1,11.9c-0.7-11.7-1.5-6.9-5.9-11.8c-4.8-5.3,0.4-5.9-11.9-6.9
						c12-1,7.6-2.9,11.4-6.6C166.5-23.2,166.8-21.3,168.2-43.7"/>
				</g>
				<g id="g2314" transform="translate(575.2813,35.0005)">
					<path id="path2316" fill="#F49636" d="M168.2-43.7c1.4,21.9,2.4,21.5,6.4,25.5c2.5,2.5,0.7,5.4,11.3,6.3
						c-11.4,0.9-7.2,2.4-11.6,6.7c-4.1,4-5.4,0.3-6.1,11.9c-0.7-11.6-1.5-6.9-5.9-11.8c-4.8-5.3,0.4-5.9-11.9-6.9
						c12-0.9,7.7-2.9,11.4-6.6C166.6-23.1,166.8-21.4,168.2-43.7"/>
				</g>
				<g id="g2318" transform="translate(575.2813,35.0013)">
					<path id="path2320" fill="#F49637" d="M168.2-43.7c1.4,21.8,2.4,21.5,6.4,25.5c2.5,2.5,0.7,5.4,11.3,6.3
						c-11.4,0.9-7.2,2.4-11.6,6.7c-4.1,4-5.4,0.3-6.1,11.9c-0.7-11.6-1.5-7-5.8-11.8c-4.7-5.2,0.3-5.9-11.9-6.8
						c12-0.9,7.7-2.9,11.4-6.6C166.6-23.1,166.8-21.4,168.2-43.7"/>
				</g>
				<g id="g2322" transform="translate(575.2813,35.0021)">
					<path id="path2324" fill="#F49738" d="M168.2-43.7c1.4,21.8,2.4,21.5,6.4,25.5c2.5,2.5,0.7,5.4,11.3,6.2
						c-11.3,0.9-7.2,2.4-11.6,6.7c-4.1,4-5.4,0.3-6.1,11.9c-0.7-11.6-1.5-7-5.8-11.8c-4.7-5.2,0.3-5.9-11.9-6.8
						c12-0.9,7.7-2.8,11.4-6.5C166.6-23.1,166.8-21.4,168.2-43.7"/>
				</g>
				<g id="g2326" transform="translate(575.2813,35.0029)">
					<path id="path2328" fill="#F49739" d="M168.2-43.7c1.4,21.8,2.4,21.6,6.4,25.5c2.5,2.5,0.8,5.4,11.4,6.2
						c-11.3,0.9-7.2,2.3-11.6,6.7c-4,4-5.3,0.4-6.1,11.9c-0.7-11.6-1.5-7-5.8-11.8c-4.7-5.2,0.3-5.8-11.9-6.8
						c11.9-0.9,7.7-2.8,11.4-6.5C166.6-23,166.8-21.5,168.2-43.7"/>
				</g>
				<g id="g2330" transform="translate(575.2813,35.0036)">
					<path id="path2332" fill="#F49839" d="M168.2-43.7c1.4,21.7,2.4,21.6,6.3,25.5c2.5,2.5,0.8,5.4,11.4,6.2
						c-11.3,0.9-7.3,2.3-11.7,6.6c-4,4-5.3,0.4-6.1,12c-0.7-11.6-1.5-7.1-5.8-11.8c-4.7-5.2,0.2-5.8-11.9-6.8
						c11.9-0.9,7.7-2.8,11.5-6.5C166.6-23,166.8-21.5,168.2-43.7"/>
				</g>
				<g id="g2334" transform="translate(575.2813,35.0044)">
					<path id="path2336" fill="#F4983A" d="M168.2-43.7c1.4,21.7,2.4,21.6,6.3,25.5c2.5,2.5,0.8,5.4,11.4,6.2
						c-11.3,0.9-7.3,2.3-11.7,6.6c-4,3.9-5.3,0.4-6,12c-0.7-11.6-1.5-7.1-5.8-11.8c-4.7-5.2,0.2-5.8-11.9-6.8
						c11.9-0.9,7.8-2.8,11.5-6.5C166.6-23,166.8-21.5,168.2-43.7"/>
				</g>
				<g id="g2338" transform="translate(575.2813,35.0052)">
					<path id="path2340" fill="#F4993B" d="M168.2-43.7c1.4,21.7,2.4,21.6,6.3,25.6c2.5,2.5,0.8,5.3,11.4,6.2
						c-11.3,0.9-7.3,2.3-11.7,6.6c-4,3.9-5.3,0.5-6,12c-0.7-11.5-1.5-7.1-5.8-11.9c-4.7-5.2,0.2-5.8-11.9-6.7
						c11.9-0.9,7.8-2.8,11.5-6.5C166.6-23,166.8-21.5,168.2-43.7"/>
				</g>
				<g id="g2342" transform="translate(575.2813,35.006)">
					<path id="path2344" fill="#F4993C" d="M168.2-43.7c1.4,21.6,2.3,21.7,6.3,25.6c2.5,2.5,0.9,5.3,11.4,6.2
						c-11.3,0.9-7.3,2.3-11.7,6.6c-4,3.9-5.3,0.5-6,12c-0.7-11.5-1.5-7.1-5.8-11.9c-4.7-5.1,0.1-5.8-12-6.7
						c11.8-0.9,7.8-2.8,11.5-6.5C166.6-22.9,166.8-21.6,168.2-43.7"/>
				</g>
				<g id="g2346" transform="translate(575.2813,35.0069)">
					<path id="path2348" fill="#F49A3D" d="M168.2-43.7c1.4,21.6,2.3,21.7,6.3,25.6c2.5,2.5,0.9,5.3,11.4,6.1
						c-11.2,0.9-7.4,2.3-11.7,6.6c-4,3.9-5.3,0.5-6,12c-0.7-11.5-1.5-7.2-5.7-11.9c-4.6-5.1,0.1-5.7-12-6.7
						c11.8-0.9,7.8-2.8,11.5-6.4C166.6-22.9,166.8-21.6,168.2-43.7"/>
				</g>
				<g id="g2350" transform="translate(575.2813,35.0077)">
					<path id="path2352" fill="#F49A3E" d="M168.2-43.7c1.4,21.6,2.3,21.7,6.3,25.6c2.5,2.5,0.9,5.3,11.4,6.1
						c-11.2,0.9-7.4,2.3-11.7,6.5c-4,3.9-5.2,0.6-6,12c-0.7-11.5-1.4-7.2-5.7-11.9c-4.6-5.1,0.1-5.7-12-6.7
						c11.8-0.9,7.9-2.8,11.5-6.4C166.6-22.9,166.9-21.6,168.2-43.7"/>
				</g>
				<g id="g2354" transform="translate(575.2813,35.0085)">
					<path id="path2356" fill="#F49B3F" d="M168.2-43.7c1.4,21.6,2.3,21.7,6.2,25.6c2.5,2.5,1,5.3,11.4,6.1
						c-11.2,0.9-7.4,2.3-11.7,6.5c-4,3.9-5.2,0.6-6,12.1c-0.7-11.5-1.4-7.2-5.7-11.9c-4.6-5.1,0-5.7-12-6.7
						c11.8-0.9,7.9-2.8,11.5-6.4C166.6-22.8,166.9-21.7,168.2-43.7"/>
				</g>
				<g id="g2358" transform="translate(575.2813,35.0093)">
					<path id="path2360" fill="#F49B40" d="M168.2-43.7c1.4,21.5,2.3,21.8,6.2,25.6c2.5,2.5,1,5.3,11.5,6.1
						c-11.2,0.9-7.4,2.3-11.8,6.5c-4,3.9-5.2,0.6-5.9,12.1c-0.7-11.5-1.4-7.3-5.7-11.9c-4.6-5.1,0-5.7-12-6.6
						c11.8-0.9,7.9-2.8,11.5-6.4C166.6-22.8,166.9-21.7,168.2-43.7"/>
				</g>
				<g id="g2362" transform="translate(575.2813,35.0101)">
					<path id="path2364" fill="#F59B40" d="M168.2-43.7c1.4,21.5,2.3,21.8,6.2,25.6c2.5,2.4,1,5.2,11.5,6.1
						c-11.2,0.9-7.5,2.3-11.8,6.5c-3.9,3.9-5.2,0.7-5.9,12.1c-0.7-11.4-1.4-7.3-5.7-12c-4.6-5.1,0-5.7-12-6.6
						c11.7-0.9,7.9-2.7,11.6-6.4C166.6-22.8,166.9-21.7,168.2-43.7"/>
				</g>
				<g id="g2366" transform="translate(575.2813,35.0109)">
					<path id="path2368" fill="#F59C41" d="M168.2-43.7c1.4,21.5,2.3,21.8,6.2,25.7c2.5,2.4,1.1,5.2,11.5,6
						c-11.2,0.9-7.5,2.3-11.8,6.5c-3.9,3.9-5.2,0.7-5.9,12.1c-0.7-11.4-1.4-7.3-5.7-12c-4.6-5.1-0.1-5.7-12-6.6
						c11.7-0.9,7.9-2.7,11.6-6.3C166.6-22.7,166.9-21.8,168.2-43.7"/>
				</g>
				<g id="g2370" transform="translate(575.2813,35.0117)">
					<path id="path2372" fill="#F59C42" d="M168.2-43.7c1.4,21.4,2.3,21.8,6.2,25.7c2.5,2.4,1.1,5.2,11.5,6
						c-11.1,0.9-7.5,2.3-11.8,6.5c-3.9,3.8-5.2,0.7-5.9,12.1c-0.7-11.4-1.4-7.3-5.6-12c-4.6-5-0.1-5.6-12-6.6
						c11.7-0.9,8-2.7,11.6-6.3C166.6-22.7,166.9-21.8,168.2-43.7"/>
				</g>
				<g id="g2374" transform="translate(575.2813,35.0125)">
					<path id="path2376" fill="#F59C43" d="M168.2-43.7c1.4,21.4,2.3,21.8,6.2,25.7c2.5,2.4,1.1,5.2,11.5,6
						c-11.1,0.9-7.5,2.3-11.8,6.4c-3.9,3.8-5.1,0.7-5.9,12.1c-0.7-11.4-1.4-7.4-5.6-12c-4.5-5-0.1-5.6-12.1-6.6
						c11.7-0.9,8-2.7,11.6-6.3C166.6-22.7,166.9-21.8,168.2-43.7"/>
				</g>
				<g id="g2378" transform="translate(575.2813,35.0133)">
					<path id="path2380" fill="#F59D44" d="M168.2-43.7c1.3,21.4,2.3,21.9,6.1,25.7c2.5,2.4,1.2,5.2,11.5,6
						c-11.1,0.9-7.6,2.3-11.8,6.4c-3.9,3.8-5.1,0.8-5.9,12.2c-0.7-11.4-1.4-7.4-5.6-12c-4.5-5-0.2-5.6-12.1-6.5
						c11.6-0.9,8-2.7,11.6-6.3C166.6-22.7,166.9-21.9,168.2-43.7"/>
				</g>
				<g id="g2382" transform="translate(575.2813,35.014)">
					<path id="path2384" fill="#F59D45" d="M168.2-43.7c1.3,21.3,2.3,21.9,6.1,25.7c2.5,2.4,1.2,5.2,11.5,6
						c-11.1,0.9-7.6,2.2-11.8,6.4c-3.9,3.8-5.1,0.8-5.8,12.2c-0.7-11.4-1.4-7.4-5.6-12c-4.5-5-0.2-5.6-12.1-6.5
						c11.6-0.9,8-2.7,11.6-6.3C166.6-22.6,166.9-21.9,168.2-43.7"/>
				</g>
				<g id="g2386" transform="translate(575.2813,35.0148)">
					<path id="path2388" fill="#F59E46" d="M168.2-43.7c1.3,21.3,2.3,21.9,6.1,25.7c2.4,2.4,1.2,5.1,11.6,5.9
						c-11.1,0.9-7.6,2.2-11.8,6.4c-3.9,3.8-5.1,0.8-5.8,12.2c-0.7-11.3-1.4-7.5-5.6-12c-4.5-5-0.2-5.6-12.1-6.5
						c11.6-0.9,8.1-2.7,11.6-6.2C166.6-22.6,166.9-21.9,168.2-43.7"/>
				</g>
				<g id="g2390" transform="translate(575.2813,35.0156)">
					<path id="path2392" fill="#F59E47" d="M168.2-43.6c1.3,21.3,2.3,21.9,6.1,25.7c2.4,2.4,1.3,5.1,11.6,5.9
						c-11,0.9-7.6,2.2-11.9,6.4c-3.9,3.8-5.1,0.9-5.8,12.2c-0.7-11.3-1.4-7.5-5.6-12.1c-4.5-5-0.3-5.6-12.1-6.5
						c11.6-0.9,8.1-2.7,11.7-6.2C166.6-22.6,166.9-21.9,168.2-43.6"/>
				</g>
				<g id="g2394" transform="translate(575.2813,35.0164)">
					<path id="path2396" fill="#F59F47" d="M168.2-43.6c1.3,21.2,2.3,22,6.1,25.8c2.4,2.4,1.3,5.1,11.6,5.9
						c-11,0.9-7.7,2.2-11.9,6.3c-3.9,3.8-5.1,0.9-5.8,12.2c-0.7-11.3-1.4-7.5-5.5-12.1c-4.5-5-0.3-5.5-12.1-6.5
						c11.6-0.9,8.1-2.7,11.7-6.2C166.6-22.5,166.9-22,168.2-43.6"/>
				</g>
				<g id="g2398" transform="translate(575.2813,35.0172)">
					<path id="path2400" fill="#F59F48" d="M168.2-43.6c1.3,21.2,2.2,22,6.1,25.8c2.4,2.4,1.3,5.1,11.6,5.9
						c-11,0.9-7.7,2.2-11.9,6.3c-3.9,3.8-5.1,0.9-5.8,12.2c-0.7-11.3-1.4-7.5-5.5-12.1c-4.5-4.9-0.3-5.5-12.1-6.5
						c11.5-0.9,8.1-2.7,11.7-6.2C166.6-22.5,166.9-22,168.2-43.6"/>
				</g>
				<g id="g2402" transform="translate(575.2813,35.018)">
					<path id="path2404" fill="#F5A049" d="M168.2-43.6c1.3,21.2,2.2,22,6,25.8c2.4,2.4,1.3,5.1,11.6,5.9c-11,0.9-7.7,2.2-11.9,6.3
						c-3.8,3.8-5,1-5.8,12.2c-0.7-11.3-1.4-7.6-5.5-12.1c-4.5-4.9-0.4-5.5-12.1-6.4c11.5-0.9,8.1-2.6,11.7-6.2
						C166.7-22.5,166.9-22,168.2-43.6"/>
				</g>
				<g id="g2406" transform="translate(575.2813,35.0188)">
					<path id="path2408" fill="#F5A049" d="M168.2-43.6c1.3,21.1,2.2,22,6,25.8c2.4,2.4,1.4,5.1,11.6,5.9c-11,0.9-7.7,2.2-11.9,6.3
						c-3.8,3.8-5,1-5.7,12.3c-0.7-11.2-1.4-7.6-5.5-12.1c-4.4-4.9-0.4-5.5-12.2-6.4c11.5-0.9,8.2-2.6,11.7-6.1
						C166.7-22.4,166.9-22.1,168.2-43.6"/>
				</g>
				<g id="g2410" transform="translate(575.2813,35.0197)">
					<path id="path2412" fill="#F5A14A" d="M168.2-43.6c1.3,21.1,2.2,22.1,6,25.8c2.4,2.4,1.4,5,11.6,5.8c-11,0.9-7.8,2.2-11.9,6.3
						c-3.8,3.7-5,1-5.7,12.3c-0.7-11.2-1.4-7.6-5.5-12.1c-4.4-4.9-0.4-5.5-12.2-6.4c11.5-0.9,8.2-2.6,11.7-6.1
						C166.7-22.4,166.9-22.1,168.2-43.6"/>
				</g>
				<g id="g2414" transform="translate(575.2813,35.0205)">
					<path id="path2416" fill="#F5A14B" d="M168.2-43.6c1.3,21.1,2.2,22.1,6,25.8c2.4,2.4,1.4,5,11.7,5.8
						c-10.9,0.9-7.8,2.2-11.9,6.2c-3.8,3.7-5,1.1-5.7,12.3c-0.7-11.2-1.4-7.7-5.5-12.2c-4.4-4.9-0.4-5.5-12.2-6.4
						c11.4-0.9,8.2-2.6,11.7-6.1C166.7-22.4,166.9-22.1,168.2-43.6"/>
				</g>
				<g id="g2418" transform="translate(575.2813,35.0213)">
					<path id="path2420" fill="#F6A24C" d="M168.2-43.6c1.3,21,2.2,22.1,6,25.8c2.4,2.4,1.5,5,11.7,5.8c-10.9,0.9-7.8,2.2-11.9,6.2
						c-3.8,3.7-5,1.1-5.7,12.3c-0.7-11.2-1.4-7.7-5.4-12.2c-4.4-4.9-0.5-5.4-12.2-6.4c11.4-0.9,8.2-2.6,11.8-6.1
						C166.7-22.3,166.9-22.2,168.2-43.6"/>
				</g>
				<g id="g2422" transform="translate(575.2813,35.0221)">
					<path id="path2424" fill="#F6A24C" d="M168.2-43.6c1.3,21,2.2,22.1,5.9,25.9c2.4,2.4,1.5,5,11.7,5.8c-10.9,0.9-7.8,2.2-12,6.2
						c-3.8,3.7-5,1.1-5.7,12.3c-0.7-11.2-1.4-7.7-5.4-12.2c-4.4-4.8-0.5-5.4-12.2-6.3c11.4-0.9,8.3-2.6,11.8-6.1
						C166.7-22.3,166.9-22.2,168.2-43.6"/>
				</g>
				<g id="g2426" transform="translate(575.2813,35.0229)">
					<path id="path2428" fill="#F6A34D" d="M168.2-43.6c1.3,21,2.2,22.2,5.9,25.9c2.4,2.4,1.5,5,11.7,5.8c-10.9,0.9-7.9,2.2-12,6.2
						c-3.8,3.7-4.9,1.2-5.7,12.3c-0.7-11.2-1.4-7.7-5.4-12.2c-4.4-4.8-0.5-5.4-12.2-6.3c11.4-0.9,8.3-2.6,11.8-6
						C166.7-22.3,166.9-22.2,168.2-43.6"/>
				</g>
				<g id="g2430" transform="translate(575.2813,35.0237)">
					<path id="path2432" fill="#F6A34E" d="M168.2-43.6c1.3,21,2.2,22.2,5.9,25.9c2.4,2.4,1.6,5,11.7,5.8c-10.9,0.9-7.9,2.2-12,6.2
						c-3.8,3.7-4.9,1.2-5.6,12.3c-0.7-11.1-1.4-7.8-5.4-12.2c-4.4-4.8-0.6-5.4-12.2-6.3c11.3-0.9,8.3-2.6,11.8-6
						C166.7-22.3,166.9-22.2,168.2-43.6"/>
				</g>
				<g id="g2434" transform="translate(575.2813,35.0245)">
					<path id="path2436" fill="#F6A44F" d="M168.2-43.6c1.3,20.9,2.2,22.2,5.9,25.9c2.4,2.4,1.6,4.9,11.7,5.7
						c-10.9,0.9-7.9,2.2-12,6.2c-3.8,3.7-4.9,1.2-5.6,12.4c-0.7-11.1-1.4-7.8-5.4-12.2c-4.3-4.8-0.6-5.4-12.2-6.3
						c11.3-0.9,8.3-2.6,11.8-6C166.7-22.2,166.9-22.3,168.2-43.6"/>
				</g>
				<g id="g2438" transform="translate(575.2813,35.0252)">
					<path id="path2440" fill="#F6A450" d="M168.2-43.6c1.3,20.9,2.2,22.2,5.9,25.9c2.4,2.4,1.6,4.9,11.7,5.7
						c-10.8,0.9-8,2.1-12,6.1c-3.7,3.7-4.9,1.2-5.6,12.4c-0.7-11.1-1.4-7.8-5.4-12.2c-4.3-4.8-0.6-5.3-12.3-6.3
						c11.3-0.9,8.4-2.6,11.8-6C166.7-22.2,166.9-22.3,168.2-43.6"/>
				</g>
				<g id="g2442" transform="translate(575.2813,35.026)">
					<path id="path2444" fill="#F6A551" d="M168.2-43.6c1.3,20.9,2.2,22.3,5.9,25.9c2.4,2.4,1.7,4.9,11.8,5.7
						c-10.8,0.9-8,2.1-12,6.1c-3.7,3.7-4.9,1.3-5.6,12.4c-0.7-11.1-1.4-7.9-5.3-12.3c-4.3-4.8-0.7-5.3-12.3-6.2
						c11.3-0.9,8.4-2.5,11.8-6C166.7-22.2,166.9-22.3,168.2-43.6"/>
				</g>
				<g id="g2446" transform="translate(575.2813,35.0268)">
					<path id="path2448" fill="#F6A552" d="M168.2-43.6c1.3,20.8,2.1,22.3,5.8,25.9c2.4,2.4,1.7,4.9,11.8,5.7
						c-10.8,0.8-8,2.1-12,6.1c-3.7,3.7-4.9,1.3-5.6,12.4c-0.7-11.1-1.4-7.9-5.3-12.3c-4.3-4.8-0.7-5.3-12.3-6.2
						c11.3-0.9,8.4-2.5,11.8-6C166.7-22.1,166.9-22.4,168.2-43.6"/>
				</g>
				<g id="g2450" transform="translate(575.2813,35.0276)">
					<path id="path2452" fill="#F6A653" d="M168.2-43.6c1.3,20.8,2.1,22.3,5.8,26c2.4,2.4,1.7,4.9,11.8,5.7
						c-10.8,0.8-8,2.1-12.1,6.1c-3.7,3.6-4.9,1.3-5.6,12.4c-0.7-11.1-1.4-7.9-5.3-12.3c-4.3-4.7-0.7-5.3-12.3-6.2
						c11.2-0.9,8.4-2.5,11.9-5.9C166.7-22.1,166.9-22.4,168.2-43.6"/>
				</g>
				<g id="g2454" transform="translate(575.2813,35.0284)">
					<path id="path2456" fill="#F6A653" d="M168.2-43.6c1.3,20.8,2.1,22.3,5.8,26c2.4,2.4,1.8,4.9,11.8,5.6
						c-10.8,0.8-8,2.1-12.1,6.1c-3.7,3.6-4.8,1.4-5.5,12.4c-0.7-11-1.3-7.9-5.3-12.3c-4.3-4.7-0.8-5.3-12.3-6.2
						c11.2-0.9,8.4-2.5,11.9-5.9C166.7-22.1,166.9-22.4,168.2-43.6"/>
				</g>
				<g id="g2458" transform="translate(575.2813,35.0292)">
					<path id="path2460" fill="#F6A754" d="M168.2-43.6c1.3,20.7,2.1,22.3,5.8,26c2.4,2.3,1.8,4.8,11.8,5.6
						c-10.8,0.8-8.1,2.1-12.1,6c-3.7,3.6-4.8,1.4-5.5,12.5c-0.7-11-1.3-8-5.3-12.3c-4.3-4.7-0.8-5.3-12.3-6.2
						c11.2-0.9,8.5-2.5,11.9-5.9C166.7-22,166.9-22.5,168.2-43.6"/>
				</g>
				<g id="g2462" transform="translate(575.2813,35.03)">
					<path id="path2464" fill="#F6A755" d="M168.2-43.6c1.3,20.7,2.1,22.4,5.8,26c2.4,2.3,1.8,4.8,11.8,5.6
						c-10.7,0.8-8.1,2.1-12.1,6c-3.7,3.6-4.8,1.4-5.5,12.5c-0.7-11-1.3-8-5.3-12.3c-4.2-4.7-0.8-5.2-12.3-6.1
						c11.2-0.9,8.5-2.5,11.9-5.9C166.7-22,166.9-22.5,168.2-43.6"/>
				</g>
				<g id="g2466" transform="translate(575.2813,35.0308)">
					<path id="path2468" fill="#F6A756" d="M168.2-43.6c1.3,20.7,2.1,22.4,5.8,26c2.4,2.3,1.8,4.8,11.8,5.6
						c-10.7,0.8-8.1,2.1-12.1,6c-3.7,3.6-4.8,1.5-5.5,12.5c-0.7-11-1.3-8-5.2-12.4c-4.2-4.7-0.9-5.2-12.3-6.1
						c11.1-0.9,8.5-2.5,11.9-5.9C166.7-22,166.9-22.5,168.2-43.6"/>
				</g>
				<g id="g2470" transform="translate(575.2813,35.0316)">
					<path id="path2472" fill="#F6A857" d="M168.2-43.6c1.3,20.6,2.1,22.4,5.7,26c2.4,2.3,1.9,4.8,11.8,5.6
						c-10.7,0.8-8.2,2.1-12.1,6c-3.7,3.6-4.8,1.5-5.5,12.5c-0.7-11-1.3-8.1-5.2-12.4c-4.2-4.7-0.9-5.2-12.4-6.1
						c11.1-0.9,8.5-2.5,11.9-5.8C166.7-21.9,166.9-22.6,168.2-43.6"/>
				</g>
				<g id="g2474" transform="translate(575.2813,35.0325)">
					<path id="path2476" fill="#F6A858" d="M168.2-43.6c1.3,20.6,2.1,22.4,5.7,26c2.4,2.3,1.9,4.8,11.9,5.6
						c-10.7,0.8-8.2,2.1-12.1,6c-3.7,3.6-4.8,1.5-5.5,12.5c-0.7-11-1.3-8.1-5.2-12.4c-4.2-4.6-0.9-5.2-12.4-6.1
						c11.1-0.9,8.6-2.5,11.9-5.8C166.7-21.9,166.9-22.6,168.2-43.6"/>
				</g>
				<g id="g2478" transform="translate(575.2813,35.0333)">
					<path id="path2480" fill="#F6A859" d="M168.2-43.6c1.3,20.6,2.1,22.5,5.7,26.1c2.3,2.3,1.9,4.8,11.9,5.5
						c-10.7,0.8-8.2,2.1-12.1,5.9c-3.6,3.6-4.7,1.6-5.4,12.5c-0.7-10.9-1.3-8.1-5.2-12.4c-4.2-4.6-1-5.2-12.4-6.1
						c11.1-0.9,8.6-2.5,11.9-5.8C166.7-21.9,166.9-22.6,168.2-43.6"/>
				</g>
				<g id="g2482" transform="translate(575.2813,35.0341)">
					<path id="path2484" fill="#F7A95A" d="M168.2-43.6c1.3,20.5,2.1,22.5,5.7,26.1c2.3,2.3,2,4.7,11.9,5.5
						c-10.7,0.8-8.2,2.1-12.2,5.9c-3.6,3.6-4.7,1.6-5.4,12.5c-0.7-10.9-1.3-8.1-5.2-12.4c-4.2-4.6-1-5.2-12.4-6.1
						c11.1-0.9,8.6-2.4,12-5.8C166.7-21.9,166.9-22.6,168.2-43.6"/>
				</g>
				<g id="g2486" transform="translate(575.2813,35.0348)">
					<path id="path2488" fill="#F7A95A" d="M168.2-43.6c1.3,20.5,2.1,22.5,5.7,26.1c2.3,2.3,2,4.7,11.9,5.5
						c-10.6,0.8-8.3,2.1-12.2,5.9c-3.6,3.5-4.7,1.6-5.4,12.6c-0.7-10.9-1.3-8.2-5.2-12.4c-4.2-4.6-1-5.1-12.4-6
						c11-0.9,8.6-2.4,12-5.8C166.8-21.8,166.9-22.7,168.2-43.6"/>
				</g>
				<g id="g2490" transform="translate(575.2813,35.0356)">
					<path id="path2492" fill="#F7AA5B" d="M168.2-43.6c1.3,20.5,2.1,22.5,5.6,26.1c2.3,2.3,2,4.7,11.9,5.5
						c-10.6,0.8-8.3,2.1-12.2,5.9c-3.6,3.5-4.7,1.7-5.4,12.6c-0.7-10.9-1.3-8.2-5.2-12.4c-4.2-4.6-1.1-5.1-12.4-6
						c11-0.9,8.6-2.4,12-5.7C166.8-21.8,166.9-22.7,168.2-43.6"/>
				</g>
				<g id="g2494" transform="translate(575.2813,35.0364)">
					<path id="path2496" fill="#F7AA5C" d="M168.2-43.6c1.3,20.5,2.1,22.6,5.6,26.1c2.3,2.3,2.1,4.7,11.9,5.5
						c-10.6,0.8-8.3,2.1-12.2,5.9c-3.6,3.5-4.7,1.7-5.4,12.6c-0.7-10.9-1.3-8.2-5.1-12.5c-4.1-4.6-1.1-5.1-12.4-6
						c11-0.9,8.7-2.4,12-5.7C166.8-21.8,166.9-22.7,168.2-43.6"/>
				</g>
				<g id="g2498" transform="translate(575.2813,35.0372)">
					<path id="path2500" fill="#F7AB5D" d="M168.2-43.6c1.3,20.4,2,22.6,5.6,26.1c2.3,2.3,2.1,4.7,11.9,5.5
						c-10.6,0.8-8.3,2-12.2,5.8c-3.6,3.5-4.7,1.7-5.3,12.6c-0.7-10.9-1.3-8.3-5.1-12.5c-4.1-4.6-1.1-5.1-12.4-6
						c11-0.9,8.7-2.4,12-5.7C166.8-21.7,166.9-22.8,168.2-43.6"/>
				</g>
				<g id="g2502" transform="translate(575.2813,35.038)">
					<path id="path2504" fill="#F7AC5E" d="M168.2-43.6c1.3,20.4,2,22.6,5.6,26.1c2.3,2.3,2.1,4.7,12,5.4c-10.6,0.8-8.4,2-12.2,5.8
						c-3.6,3.5-4.6,1.7-5.3,12.6c-0.7-10.8-1.3-8.3-5.1-12.5c-4.1-4.5-1.2-5.1-12.5-6c10.9-0.9,8.7-2.4,12-5.7
						C166.8-21.7,166.9-22.8,168.2-43.6"/>
				</g>
				<g id="g2506" transform="translate(575.2813,35.0388)">
					<path id="path2508" fill="#F7AC5F" d="M168.2-43.6c1.3,20.4,2,22.6,5.6,26.2c2.3,2.3,2.2,4.6,12,5.4c-10.6,0.8-8.4,2-12.2,5.8
						c-3.6,3.5-4.6,1.8-5.3,12.6c-0.7-10.8-1.3-8.3-5.1-12.5c-4.1-4.5-1.2-5-12.5-5.9c10.9-0.9,8.7-2.4,12-5.7
						C166.8-21.7,166.9-22.8,168.2-43.6"/>
				</g>
				<g id="g2510" transform="translate(575.2813,35.0396)">
					<path id="path2512" fill="#F7AD60" d="M168.2-43.6c1.3,20.3,2,22.7,5.6,26.2c2.3,2.3,2.2,4.6,12,5.4c-10.5,0.8-8.4,2-12.2,5.8
						c-3.6,3.5-4.6,1.8-5.3,12.7c-0.7-10.8-1.3-8.3-5.1-12.5c-4.1-4.5-1.2-5-12.5-5.9c10.9-0.9,8.8-2.4,12.1-5.6
						C166.8-21.6,166.9-22.9,168.2-43.6"/>
				</g>
				<g id="g2514" transform="translate(575.2813,35.0404)">
					<path id="path2516" fill="#F7AD60" d="M168.2-43.6c1.3,20.3,2,22.7,5.5,26.2c2.3,2.3,2.2,4.6,12,5.4c-10.5,0.8-8.4,2-12.3,5.8
						c-3.5,3.5-4.6,1.8-5.3,12.7c-0.7-10.8-1.3-8.4-5.1-12.5c-4.1-4.5-1.2-5-12.5-5.9c10.9-0.9,8.8-2.4,12.1-5.6
						C166.8-21.6,166.9-22.9,168.2-43.6"/>
				</g>
				<g id="g2518" transform="translate(575.2813,35.0412)">
					<path id="path2520" fill="#F7AE61" d="M168.2-43.6c1.3,20.3,2,22.7,5.5,26.2c2.3,2.3,2.3,4.6,12,5.4c-10.5,0.8-8.5,2-12.3,5.7
						c-3.5,3.5-4.6,1.9-5.3,12.7c-0.7-10.8-1.3-8.4-5-12.5c-4.1-4.5-1.3-5-12.5-5.9c10.8-0.9,8.8-2.4,12.1-5.6
						C166.8-21.6,166.9-22.9,168.2-43.6"/>
				</g>
				<g id="g2522" transform="translate(575.2813,35.042)">
					<path id="path2524" fill="#F7AE62" d="M168.2-43.6c1.3,20.2,2,22.7,5.5,26.2c2.3,2.3,2.3,4.6,12,5.3c-10.5,0.8-8.5,2-12.3,5.7
						c-3.5,3.5-4.6,1.9-5.3,12.7c-0.7-10.8-1.3-8.4-5-12.6c-4-4.5-1.3-5-12.5-5.9c10.8-0.9,8.8-2.3,12.1-5.6
						C166.8-21.5,166.9-23,168.2-43.6"/>
				</g>
				<g id="g2526" transform="translate(575.2813,35.0428)">
					<path id="path2528" fill="#F7AF63" d="M168.2-43.6c1.3,20.2,2,22.8,5.5,26.2c2.3,2.3,2.3,4.6,12,5.3c-10.5,0.8-8.5,2-12.3,5.7
						c-3.5,3.4-4.6,1.9-5.2,12.7c-0.7-10.7-1.3-8.5-5-12.6c-4-4.5-1.3-5-12.5-5.8c10.8-0.9,8.8-2.3,12.1-5.6
						C166.8-21.5,166.9-23,168.2-43.6"/>
				</g>
				<g id="g2530" transform="translate(575.2813,35.0437)">
					<path id="path2532" fill="#F7AF63" d="M168.2-43.5c1.3,20.2,2,22.8,5.5,26.2c2.3,2.3,2.3,4.5,12.1,5.3
						c-10.4,0.8-8.5,2-12.3,5.7c-3.5,3.4-4.5,2-5.2,12.7c-0.7-10.7-1.3-8.5-5-12.6c-4-4.4-1.4-4.9-12.5-5.8
						c10.8-0.8,8.9-2.3,12.1-5.6C166.8-21.5,166.9-23,168.2-43.5"/>
				</g>
				<g id="g2534" transform="translate(575.2813,35.0444)">
					<path id="path2536" fill="#F7B064" d="M168.2-43.5c1.3,20.1,2,22.8,5.5,26.3c2.3,2.3,2.4,4.5,12.1,5.3
						c-10.4,0.8-8.6,2-12.3,5.7c-3.5,3.4-4.5,2-5.2,12.7c-0.7-10.7-1.3-8.5-5-12.6c-4-4.4-1.4-4.9-12.6-5.8
						c10.8-0.8,8.9-2.3,12.1-5.5C166.8-21.5,167-23,168.2-43.5"/>
				</g>
				<g id="g2538" transform="translate(575.2813,35.0452)">
					<path id="path2540" fill="#F7B065" d="M168.2-43.5c1.3,20.1,2,22.8,5.4,26.3c2.3,2.3,2.4,4.5,12.1,5.3
						c-10.4,0.8-8.6,2-12.3,5.7c-3.5,3.4-4.5,2-5.2,12.8c-0.7-10.7-1.3-8.5-5-12.6c-4-4.4-1.4-4.9-12.6-5.8
						c10.7-0.8,8.9-2.3,12.1-5.5C166.8-21.4,167-23.1,168.2-43.5"/>
				</g>
				<g id="g2542" transform="translate(575.2813,35.046)">
					<path id="path2544" fill="#F8B066" d="M168.2-43.5c1.3,20.1,2,22.9,5.4,26.3c2.3,2.3,2.4,4.5,12.1,5.3
						c-10.4,0.8-8.6,2-12.4,5.6c-3.5,3.4-4.5,2.1-5.2,12.8c-0.7-10.7-1.3-8.6-4.9-12.6c-4-4.4-1.5-4.9-12.6-5.8
						c10.7-0.8,8.9-2.3,12.2-5.5C166.8-21.4,167-23.1,168.2-43.5"/>
				</g>
				<g id="g2546" transform="translate(575.2813,35.0468)">
					<path id="path2548" fill="#F8B066" d="M168.2-43.5c1.3,20,2,22.9,5.4,26.3c2.3,2.3,2.5,4.5,12.1,5.2c-10.4,0.8-8.6,2-12.4,5.6
						c-3.5,3.4-4.5,2.1-5.1,12.8c-0.7-10.7-1.3-8.6-4.9-12.7c-4-4.4-1.5-4.9-12.6-5.7c10.7-0.8,9-2.3,12.2-5.5
						C166.8-21.4,167-23.1,168.2-43.5"/>
				</g>
				<g id="g2550" transform="translate(575.2813,35.0476)">
					<path id="path2552" fill="#F8B167" d="M168.2-43.5c1.3,20,2,22.9,5.4,26.3c2.3,2.2,2.5,4.5,12.1,5.2c-10.4,0.8-8.7,2-12.4,5.6
						c-3.4,3.4-4.5,2.1-5.1,12.8c-0.7-10.6-1.3-8.6-4.9-12.7c-3.9-4.4-1.5-4.9-12.6-5.7c10.7-0.8,9-2.3,12.2-5.5
						C166.8-21.3,167-23.2,168.2-43.5"/>
				</g>
				<g id="g2554" transform="translate(575.2813,35.0484)">
					<path id="path2556" fill="#F8B168" d="M168.2-43.5c1.3,20,1.9,22.9,5.4,26.3c2.3,2.2,2.5,4.4,12.1,5.2
						c-10.3,0.8-8.7,1.9-12.4,5.6c-3.4,3.4-4.4,2.1-5.1,12.8c-0.7-10.6-1.3-8.7-4.9-12.7c-3.9-4.3-1.6-4.8-12.6-5.7
						c10.6-0.8,9-2.3,12.2-5.4C166.8-21.3,167-23.2,168.2-43.5"/>
				</g>
				<g id="g2558" transform="translate(575.2813,35.0492)">
					<path id="path2560" fill="#F8B269" d="M168.2-43.5c1.3,19.9,1.9,23,5.3,26.3c2.3,2.2,2.6,4.4,12.2,5.2
						c-10.3,0.8-8.7,1.9-12.4,5.6c-3.4,3.4-4.4,2.2-5.1,12.8c-0.7-10.6-1.3-8.7-4.9-12.7c-3.9-4.3-1.6-4.8-12.6-5.7
						c10.6-0.8,9-2.3,12.2-5.4C166.8-21.3,167-23.2,168.2-43.5"/>
				</g>
				<g id="g2562" transform="translate(575.2813,35.05)">
					<path id="path2564" fill="#F8B26A" d="M168.2-43.5c1.3,19.9,1.9,23,5.3,26.4c2.3,2.2,2.6,4.4,12.2,5.2
						c-10.3,0.8-8.7,1.9-12.4,5.5c-3.4,3.3-4.4,2.2-5.1,12.8c-0.7-10.6-1.2-8.7-4.9-12.7c-3.9-4.3-1.6-4.8-12.6-5.7
						c10.6-0.8,9-2.2,12.2-5.4C166.8-21.2,167-23.3,168.2-43.5"/>
				</g>
				<g id="g2566" transform="translate(575.2813,35.0508)">
					<path id="path2568" fill="#F8B36B" d="M168.2-43.5c1.3,19.9,1.9,23,5.3,26.4c2.3,2.2,2.6,4.4,12.2,5.1
						c-10.3,0.8-8.8,1.9-12.4,5.5c-3.4,3.3-4.4,2.2-5.1,12.9c-0.7-10.6-1.2-8.8-4.8-12.7c-3.9-4.3-1.7-4.8-12.7-5.7
						c10.6-0.8,9.1-2.2,12.2-5.4C166.8-21.2,167-23.3,168.2-43.5"/>
				</g>
				<g id="g2570" transform="translate(575.2813,35.0516)">
					<path id="path2572" fill="#F8B36C" d="M168.2-43.5c1.3,19.9,1.9,23,5.3,26.4c2.2,2.2,2.7,4.4,12.2,5.1
						c-10.3,0.8-8.8,1.9-12.4,5.5c-3.4,3.3-4.4,2.3-5,12.9c-0.7-10.6-1.2-8.8-4.8-12.7c-3.9-4.3-1.7-4.8-12.7-5.6
						c10.6-0.8,9.1-2.2,12.3-5.4C166.8-21.2,167-23.3,168.2-43.5"/>
				</g>
				<g id="g2574" transform="translate(575.2813,35.0524)">
					<path id="path2576" fill="#F8B46D" d="M168.2-43.5c1.3,19.8,1.9,23,5.3,26.4c2.2,2.2,2.7,4.4,12.2,5.1
						c-10.3,0.8-8.8,1.9-12.5,5.5c-3.4,3.3-4.4,2.3-5,12.9c-0.7-10.5-1.2-8.8-4.8-12.8c-3.9-4.3-1.7-4.8-12.7-5.6
						c10.5-0.8,9.1-2.2,12.3-5.3C166.9-21.1,167-23.3,168.2-43.5"/>
				</g>
				<g id="g2578" transform="translate(575.2813,35.0532)">
					<path id="path2580" fill="#F8B46D" d="M168.2-43.5c1.3,19.8,1.9,23.1,5.3,26.4c2.2,2.2,2.7,4.3,12.2,5.1
						c-10.2,0.8-8.8,1.9-12.5,5.5c-3.4,3.3-4.3,2.3-5,12.9c-0.7-10.5-1.2-8.8-4.8-12.8c-3.9-4.3-1.8-4.7-12.7-5.6
						c10.5-0.8,9.1-2.2,12.3-5.3C166.9-21.1,167-23.4,168.2-43.5"/>
				</g>
				<g id="g2582" transform="translate(575.2813,35.0539)">
					<path id="path2584" fill="#F8B56E" d="M168.2-43.5c1.2,19.8,1.9,23.1,5.2,26.4c2.2,2.2,2.7,4.3,12.2,5.1
						c-10.2,0.8-8.9,1.9-12.5,5.4c-3.4,3.3-4.3,2.4-5,12.9c-0.7-10.5-1.2-8.9-4.8-12.8c-3.8-4.2-1.8-4.7-12.7-5.6
						c10.5-0.8,9.2-2.2,12.3-5.3C166.9-21.1,167-23.4,168.2-43.5"/>
				</g>
				<g id="g2586" transform="translate(575.2813,35.0548)">
					<path id="path2588" fill="#F8B56F" d="M168.2-43.5c1.2,19.7,1.9,23.1,5.2,26.4c2.2,2.2,2.8,4.3,12.2,5.1
						c-10.2,0.8-8.9,1.9-12.5,5.4c-3.4,3.3-4.3,2.4-5,12.9c-0.7-10.5-1.2-8.9-4.8-12.8c-3.8-4.2-1.8-4.7-12.7-5.6
						c10.5-0.8,9.2-2.2,12.3-5.3C166.9-21.1,167-23.4,168.2-43.5"/>
				</g>
				<g id="g2590" transform="translate(575.2813,35.0556)">
					<path id="path2592" fill="#F8B670" d="M168.2-43.5c1.2,19.7,1.9,23.1,5.2,26.5c2.2,2.2,2.8,4.3,12.3,5
						c-10.2,0.8-8.9,1.9-12.5,5.4c-3.3,3.3-4.3,2.4-5,13c-0.7-10.5-1.2-8.9-4.7-12.8c-3.8-4.2-1.9-4.7-12.7-5.5
						c10.4-0.8,9.2-2.2,12.3-5.3C166.9-21,167-23.5,168.2-43.5"/>
				</g>
				<g id="g2594" transform="translate(575.2813,35.0564)">
					<path id="path2596" fill="#F8B671" d="M168.2-43.5c1.2,19.7,1.9,23.2,5.2,26.5c2.2,2.2,2.8,4.3,12.3,5
						c-10.2,0.8-8.9,1.9-12.5,5.4c-3.3,3.3-4.3,2.5-4.9,13c-0.7-10.4-1.2-9-4.7-12.8c-3.8-4.2-1.9-4.7-12.7-5.5
						c10.4-0.8,9.2-2.2,12.3-5.2C166.9-21,167-23.5,168.2-43.5"/>
				</g>
				<g id="g2598" transform="translate(575.2813,35.0572)">
					<path id="path2600" fill="#F8B772" d="M168.2-43.5c1.2,19.6,1.9,23.2,5.2,26.5c2.2,2.2,2.9,4.3,12.3,5
						c-10.2,0.8-9,1.9-12.5,5.4c-3.3,3.3-4.3,2.5-4.9,13c-0.7-10.4-1.2-9-4.7-12.9c-3.8-4.2-1.9-4.7-12.8-5.5
						c10.4-0.8,9.3-2.2,12.3-5.2C166.9-21,167-23.5,168.2-43.5"/>
				</g>
				<g id="g2602" transform="translate(575.2813,35.058)">
					<path id="path2604" fill="#F8B773" d="M168.2-43.5c1.2,19.6,1.9,23.2,5.2,26.5c2.2,2.2,2.9,4.2,12.3,5
						c-10.1,0.8-9,1.9-12.5,5.3c-3.3,3.2-4.3,2.5-4.9,13c-0.7-10.4-1.2-9-4.7-12.9c-3.8-4.2-2-4.6-12.8-5.5
						c10.4-0.8,9.3-2.2,12.4-5.2C166.9-20.9,167-23.6,168.2-43.5"/>
				</g>
				<g id="g2606" transform="translate(575.2813,35.0588)">
					<path id="path2608" fill="#F8B773" d="M168.2-43.5c1.2,19.6,1.8,23.2,5.1,26.5c2.2,2.2,2.9,4.2,12.3,5
						c-10.1,0.8-9,1.9-12.6,5.3c-3.3,3.2-4.2,2.6-4.9,13c-0.7-10.4-1.2-9-4.7-12.9c-3.8-4.1-2-4.6-12.8-5.5
						c10.3-0.8,9.3-2.1,12.4-5.2C166.9-20.9,167-23.6,168.2-43.5"/>
				</g>
				<g id="g2610" transform="translate(575.2813,35.0596)">
					<path id="path2612" fill="#F8B774" d="M168.2-43.5c1.2,19.5,1.8,23.3,5.1,26.5c2.2,2.2,3,4.2,12.3,5c-10.1,0.8-9,1.8-12.6,5.3
						c-3.3,3.2-4.2,2.6-4.9,13c-0.7-10.4-1.2-9.1-4.7-12.9c-3.7-4.1-2-4.6-12.8-5.4c10.3-0.8,9.3-2.1,12.4-5.2
						C166.9-20.9,167-23.6,168.2-43.5"/>
				</g>
				<g id="g2614" transform="translate(575.2813,35.0604)">
					<path id="path2616" fill="#F9B875" d="M168.2-43.5c1.2,19.5,1.8,23.3,5.1,26.5c2.2,2.2,3,4.2,12.3,4.9
						c-10.1,0.8-9.1,1.8-12.6,5.3c-3.3,3.2-4.2,2.6-4.9,13.1C167.6-4,167-2.8,163.6-6.6c-3.7-4.1-2-4.6-12.8-5.4
						c10.3-0.8,9.3-2.1,12.4-5.1C166.9-20.8,167-23.7,168.2-43.5"/>
				</g>
				<g id="g2618" transform="translate(575.2813,35.0612)">
					<path id="path2620" fill="#F9B876" d="M168.2-43.5c1.2,19.5,1.8,23.3,5.1,26.6c2.2,2.2,3,4.2,12.4,4.9
						c-10.1,0.8-9.1,1.8-12.6,5.3c-3.3,3.2-4.2,2.7-4.8,13.1c-0.7-10.3-1.2-9.1-4.6-12.9c-3.7-4.1-2.1-4.6-12.8-5.4
						c10.3-0.8,9.4-2.1,12.4-5.1C166.9-20.8,167-23.7,168.2-43.5"/>
				</g>
				<g id="g2622" transform="translate(575.2813,35.0619)">
					<path id="path2624" fill="#F9B977" d="M168.2-43.5c1.2,19.4,1.8,23.3,5.1,26.6c2.2,2.2,3.1,4.2,12.4,4.9
						c-10.1,0.8-9.1,1.8-12.6,5.3c-3.3,3.2-4.2,2.7-4.8,13.1c-0.7-10.3-1.2-9.2-4.6-12.9c-3.7-4.1-2.1-4.5-12.8-5.4
						c10.3-0.8,9.4-2.1,12.4-5.1C166.9-20.8,167-23.7,168.2-43.5"/>
				</g>
				<g id="g2626" transform="translate(575.2813,35.0627)">
					<path id="path2628" fill="#F9B977" d="M168.2-43.5c1.2,19.4,1.8,23.4,5.1,26.6c2.2,2.2,3.1,4.1,12.4,4.9
						c-10,0.8-9.1,1.8-12.6,5.2c-3.2,3.2-4.2,2.7-4.8,13.1c-0.7-10.3-1.2-9.2-4.6-13c-3.7-4.1-2.1-4.5-12.8-5.4
						c10.2-0.8,9.4-2.1,12.4-5.1C166.9-20.8,167-23.7,168.2-43.5"/>
				</g>
				<g id="g2630" transform="translate(575.2813,35.0635)">
					<path id="path2632" fill="#F9BA79" d="M168.2-43.5c1.2,19.4,1.8,23.4,5,26.6c2.2,2.2,3.1,4.1,12.4,4.9
						c-10,0.8-9.2,1.8-12.6,5.2c-3.2,3.2-4.1,2.7-4.8,13.1c-0.6-10.3-1.2-9.2-4.6-13c-3.7-4.1-2.2-4.5-12.9-5.4
						c10.2-0.8,9.4-2.1,12.5-5.1C166.9-20.7,167-23.8,168.2-43.5"/>
				</g>
				<g id="g2634" transform="translate(575.2813,35.0643)">
					<path id="path2636" fill="#F9BA79" d="M168.2-43.5c1.2,19.4,1.8,23.4,5,26.6c2.2,2.2,3.1,4.1,12.4,4.8
						c-10,0.8-9.2,1.8-12.7,5.2c-3.2,3.2-4.1,2.8-4.8,13.1c-0.6-10.3-1.2-9.2-4.6-13c-3.7-4-2.2-4.5-12.9-5.3
						c10.2-0.8,9.5-2.1,12.5-5.1C166.9-20.7,167-23.8,168.2-43.5"/>
				</g>
				<g id="g2638" transform="translate(575.2813,35.0652)">
					<path id="path2640" fill="#F9BB7A" d="M168.2-43.5c1.2,19.3,1.8,23.4,5,26.6c2.2,2.2,3.2,4.1,12.4,4.8
						c-10,0.8-9.2,1.8-12.7,5.2c-3.2,3.2-4.1,2.8-4.8,13.1c-0.6-10.3-1.2-9.3-4.6-13c-3.6-4-2.2-4.5-12.9-5.3
						c10.2-0.8,9.5-2.1,12.5-5C166.9-20.7,167-23.8,168.2-43.5"/>
				</g>
				<g id="g2642" transform="translate(575.2813,35.0659)">
					<path id="path2644" fill="#F9BB7A" d="M168.2-43.5c1.2,19.3,1.8,23.5,5,26.6c2.2,2.2,3.2,4.1,12.4,4.8
						c-10,0.8-9.2,1.8-12.7,5.2c-3.2,3.1-4.1,2.8-4.7,13.2c-0.6-10.2-1.2-9.3-4.5-13c-3.6-4-2.3-4.5-12.9-5.3
						c10.1-0.8,9.5-2.1,12.5-5C166.9-20.6,167-23.9,168.2-43.5"/>
				</g>
				<g id="g2646" transform="translate(575.2813,35.0667)">
					<path id="path2648" fill="#F9BC7B" d="M168.2-43.5c1.2,19.3,1.8,23.5,5,26.6c2.2,2.2,3.2,4.1,12.5,4.8
						c-9.9,0.8-9.3,1.8-12.7,5.1c-3.2,3.1-4.1,2.9-4.7,13.2c-0.6-10.2-1.2-9.3-4.5-13c-3.6-4-2.3-4.4-12.9-5.3
						c10.1-0.8,9.5-2,12.5-5C166.9-20.6,167-23.9,168.2-43.5"/>
				</g>
				<g id="g2650" transform="translate(575.2813,35.0675)">
					<path id="path2652" fill="#F9BC7C" d="M168.2-43.5c1.2,19.2,1.8,23.5,4.9,26.7c2.2,2.1,3.3,4,12.5,4.8
						c-9.9,0.8-9.3,1.8-12.7,5.1c-3.2,3.1-4.1,2.9-4.7,13.2c-0.6-10.2-1.2-9.4-4.5-13.1c-3.6-4-2.3-4.4-12.9-5.3
						c10.1-0.8,9.5-2,12.5-5C166.9-20.6,167-23.9,168.2-43.5"/>
				</g>
				<g id="g2654" transform="translate(575.2813,35.0683)">
					<path id="path2656" fill="#F9BD7D" d="M168.2-43.5c1.2,19.2,1.8,23.5,4.9,26.7c2.2,2.1,3.3,4,12.5,4.8
						c-9.9,0.8-9.3,1.8-12.7,5.1c-3.2,3.1-4,2.9-4.7,13.2c-0.6-10.2-1.2-9.4-4.5-13.1c-3.6-4-2.4-4.4-12.9-5.2
						c10.1-0.8,9.6-2,12.5-5C166.9-20.5,167-24,168.2-43.5"/>
				</g>
				<g id="g2658" transform="translate(575.2813,35.0691)">
					<path id="path2660" fill="#F9BD7E" d="M168.2-43.5c1.2,19.2,1.7,23.6,4.9,26.7c2.2,2.1,3.3,4,12.5,4.7
						c-9.9,0.8-9.3,1.8-12.7,5.1c-3.2,3.1-4,3-4.7,13.2c-0.6-10.2-1.2-9.4-4.5-13.1c-3.6-3.9-2.4-4.4-12.9-5.2
						c10.1-0.8,9.6-2,12.5-4.9C166.9-20.5,167-24,168.2-43.5"/>
				</g>
				<g id="g2662" transform="translate(575.2813,35.0699)">
					<path id="path2664" fill="#F9BD7F" d="M168.2-43.5c1.2,19.1,1.7,23.6,4.9,26.7c2.2,2.1,3.4,4,12.5,4.7
						c-9.9,0.8-9.4,1.8-12.7,5.1c-3.2,3.1-4,3-4.7,13.2c-0.6-10.2-1.1-9.4-4.5-13.1c-3.6-3.9-2.4-4.4-12.9-5.2
						c10-0.8,9.6-2,12.6-4.9C167-20.5,167-24,168.2-43.5"/>
				</g>
				<g id="g2666" transform="translate(575.2813,35.0707)">
					<path id="path2668" fill="#F9BE80" d="M168.2-43.5c1.2,19.1,1.7,23.6,4.9,26.7c2.1,2.1,3.4,4,12.5,4.7c-9.9,0.8-9.4,1.8-12.8,5
						c-3.1,3.1-4,3-4.6,13.3c-0.6-10.1-1.1-9.5-4.4-13.1c-3.5-3.9-2.5-4.4-13-5.2c10-0.8,9.6-2,12.6-4.9C167-20.4,167-24,168.2-43.5
						"/>
				</g>
				<g id="g2670" transform="translate(575.2813,35.0715)">
					<path id="path2672" fill="#F9BE80" d="M168.2-43.4c1.2,19.1,1.7,23.6,4.9,26.7c2.1,2.1,3.4,4,12.5,4.7c-9.8,0.8-9.4,1.7-12.8,5
						c-3.1,3.1-4,3.1-4.6,13.3c-0.6-10.1-1.1-9.5-4.4-13.1c-3.5-3.9-2.5-4.3-13-5.2c10-0.8,9.7-2,12.6-4.9
						C167-20.4,167-24.1,168.2-43.4"/>
				</g>
				<g id="g2674" transform="translate(575.2813,35.0723)">
					<path id="path2676" fill="#F9BE81" d="M168.2-43.4c1.2,19,1.7,23.6,4.8,26.7c2.1,2.1,3.5,3.9,12.6,4.7c-9.8,0.8-9.4,1.7-12.8,5
						c-3.1,3.1-4,3.1-4.6,13.3c-0.6-10.1-1.1-9.5-4.4-13.1c-3.5-3.9-2.5-4.3-13-5.1c10-0.8,9.7-2,12.6-4.9
						C167-20.4,167-24.1,168.2-43.4"/>
				</g>
				<g id="g2678" transform="translate(575.2813,35.0731)">
					<path id="path2680" fill="#F9BF82" d="M168.2-43.4c1.2,19,1.7,23.7,4.8,26.8c2.1,2.1,3.5,3.9,12.6,4.7c-9.8,0.8-9.5,1.7-12.8,5
						c-3.1,3-3.9,3.1-4.6,13.3c-0.6-10.1-1.1-9.6-4.4-13.2c-3.5-3.9-2.6-4.3-13-5.1c9.9-0.8,9.7-2,12.6-4.8
						C167-20.4,167-24.1,168.2-43.4"/>
				</g>
				<g id="g2682" transform="translate(575.2813,35.0739)">
					<path id="path2684" fill="#F9BF83" d="M168.2-43.4c1.2,19,1.7,23.7,4.8,26.8c2.1,2.1,3.5,3.9,12.6,4.6c-9.8,0.8-9.5,1.7-12.8,5
						c-3.1,3-3.9,3.1-4.6,13.3c-0.6-10.1-1.1-9.6-4.4-13.2c-3.5-3.9-2.6-4.3-13-5.1c9.9-0.8,9.7-2,12.6-4.8
						C167-20.3,167-24.2,168.2-43.4"/>
				</g>
				<g id="g2686" transform="translate(575.2813,35.0747)">
					<path id="path2688" fill="#FAC084" d="M168.2-43.4c1.2,18.9,1.7,23.7,4.8,26.8c2.1,2.1,3.6,3.9,12.6,4.6
						c-9.8,0.8-9.5,1.7-12.8,4.9c-3.1,3-3.9,3.2-4.6,13.3c-0.6-10.1-1.1-9.6-4.4-13.2c-3.5-3.8-2.6-4.3-13-5.1
						c9.9-0.8,9.7-1.9,12.6-4.8C167-20.3,167-24.2,168.2-43.4"/>
				</g>
				<g id="g2690" transform="translate(575.2813,35.0755)">
					<path id="path2692" fill="#FAC085" d="M168.2-43.4c1.2,18.9,1.7,23.7,4.8,26.8c2.1,2.1,3.6,3.9,12.6,4.6
						c-9.8,0.8-9.6,1.7-12.8,4.9c-3.1,3-3.9,3.2-4.5,13.3c-0.6-10-1.1-9.6-4.3-13.2c-3.5-3.8-2.7-4.2-13-5.1
						c9.9-0.8,9.8-1.9,12.7-4.8C167-20.3,167-24.2,168.2-43.4"/>
				</g>
				<g id="g2694" transform="translate(575.2813,35.0763)">
					<path id="path2696" fill="#FAC186" d="M168.2-43.4c1.2,18.9,1.7,23.8,4.8,26.8c2.1,2.1,3.6,3.9,12.6,4.6
						c-9.7,0.8-9.6,1.7-12.9,4.9c-3.1,3-3.9,3.2-4.5,13.4c-0.6-10-1.1-9.7-4.3-13.2c-3.4-3.8-2.7-4.2-13-5c9.8-0.8,9.8-1.9,12.7-4.8
						C167-20.2,167-24.3,168.2-43.4"/>
				</g>
				<g id="g2698" transform="translate(575.2813,35.0771)">
					<path id="path2700" fill="#FAC287" d="M168.2-43.4c1.2,18.8,1.7,23.8,4.7,26.8c2.1,2.1,3.6,3.8,12.6,4.6
						c-9.7,0.8-9.6,1.7-12.9,4.9c-3.1,3-3.9,3.3-4.5,13.4c-0.6-10-1.1-9.7-4.3-13.2c-3.4-3.8-2.7-4.2-13.1-5
						c9.8-0.8,9.8-1.9,12.7-4.8C167-20.2,167-24.3,168.2-43.4"/>
				</g>
				<g id="g2702" transform="translate(575.2813,35.0779)">
					<path id="path2704" fill="#FAC287" d="M168.2-43.4c1.2,18.8,1.7,23.8,4.7,26.8c2.1,2.1,3.7,3.8,12.7,4.5
						c-9.7,0.8-9.6,1.7-12.9,4.9c-3,3-3.9,3.3-4.5,13.4c-0.6-10-1.1-9.7-4.3-13.2c-3.4-3.8-2.8-4.2-13.1-5c9.8-0.8,9.8-1.9,12.7-4.7
						C167-20.2,167-24.3,168.2-43.4"/>
				</g>
				<g id="g2706" transform="translate(575.2813,35.0787)">
					<path id="path2708" fill="#FAC388" d="M168.2-43.4c1.2,18.8,1.7,23.8,4.7,26.9c2.1,2.1,3.7,3.8,12.7,4.5
						c-9.7,0.8-9.6,1.7-12.9,4.9c-3,3-3.8,3.3-4.5,13.4c-0.6-10-1.1-9.8-4.3-13.3c-3.4-3.8-2.8-4.2-13.1-5c9.8-0.8,9.9-1.9,12.7-4.7
						C167-20.1,167-24.4,168.2-43.4"/>
				</g>
				<g id="g2710" transform="translate(575.2813,35.0795)">
					<path id="path2712" fill="#FAC389" d="M168.2-43.4c1.2,18.8,1.6,23.9,4.7,26.9c2.1,2.1,3.7,3.8,12.7,4.5
						c-9.7,0.8-9.7,1.7-12.9,4.8c-3,3-3.8,3.4-4.5,13.4c-0.6-10-1.1-9.8-4.3-13.3c-3.4-3.8-2.8-4.2-13.1-5c9.8-0.8,9.9-1.9,12.7-4.7
						C167-20.1,167-24.4,168.2-43.4"/>
				</g>
				<g id="g2714" transform="translate(575.2813,35.0803)">
					<path id="path2716" fill="#FAC38A" d="M168.2-43.4c1.2,18.7,1.6,23.9,4.7,26.9c2.1,2.1,3.8,3.8,12.7,4.5
						c-9.7,0.8-9.7,1.7-12.9,4.8c-3,3-3.8,3.4-4.4,13.4c-0.6-9.9-1.1-9.8-4.2-13.3c-3.4-3.7-2.8-4.1-13.1-5
						c9.7-0.8,9.9-1.9,12.7-4.7C167-20.1,167-24.4,168.2-43.4"/>
				</g>
				<g id="g2718" transform="translate(575.2813,35.0811)">
					<path id="path2720" fill="#FAC38B" d="M168.2-43.4c1.2,18.7,1.6,23.9,4.6,26.9c2.1,2.1,3.8,3.8,12.7,4.5
						c-9.6,0.8-9.7,1.7-12.9,4.8c-3,2.9-3.8,3.4-4.4,13.4c-0.6-9.9-1.1-9.8-4.2-13.3c-3.4-3.7-2.9-4.1-13.1-4.9
						c9.7-0.8,9.9-1.9,12.7-4.7C167-20.1,167-24.4,168.2-43.4"/>
				</g>
				<g id="g2722" transform="translate(575.2813,35.0819)">
					<path id="path2724" fill="#FAC48C" d="M168.2-43.4c1.2,18.7,1.6,23.9,4.6,26.9c2.1,2.1,3.8,3.8,12.7,4.5
						c-9.6,0.8-9.8,1.6-12.9,4.8c-3,2.9-3.8,3.5-4.4,13.5c-0.6-9.9-1.1-9.9-4.2-13.3c-3.4-3.7-2.9-4.1-13.1-4.9
						c9.7-0.8,9.9-1.9,12.8-4.6C167-20,167-24.5,168.2-43.4"/>
				</g>
				<g id="g2726" transform="translate(575.2813,35.0827)">
					<path id="path2728" fill="#FAC48D" d="M168.2-43.4c1.2,18.6,1.6,24,4.6,26.9c2.1,2.1,3.9,3.7,12.7,4.4c-9.6,0.8-9.8,1.6-13,4.8
						c-3,2.9-3.8,3.5-4.4,13.5c-0.6-9.9-1.1-9.9-4.2-13.3c-3.3-3.7-2.9-4.1-13.2-4.9c9.7-0.8,10-1.8,12.8-4.6
						C167-20,167-24.5,168.2-43.4"/>
				</g>
				<g id="g2730" transform="translate(575.2813,35.0835)">
					<path id="path2732" fill="#FAC58D" d="M168.2-43.4c1.2,18.6,1.6,24,4.6,27c2.1,2.1,3.9,3.7,12.7,4.4c-9.6,0.8-9.8,1.6-13,4.7
						c-3,2.9-3.7,3.5-4.4,13.5c-0.6-9.9-1.1-9.9-4.2-13.4c-3.3-3.7-3-4.1-13.2-4.9c9.6-0.8,10-1.8,12.8-4.6
						C167-20,167.1-24.5,168.2-43.4"/>
				</g>
				<g id="g2734" transform="translate(575.2813,35.0843)">
					<path id="path2736" fill="#FAC58E" d="M168.2-43.4c1.2,18.6,1.6,24,4.6,27c2.1,2.1,3.9,3.7,12.8,4.4c-9.6,0.8-9.8,1.6-13,4.7
						c-3,2.9-3.7,3.6-4.4,13.5c-0.6-9.9-1.1-10-4.2-13.4c-3.3-3.7-3-4.1-13.2-4.9c9.6-0.8,10-1.8,12.8-4.6
						C167-19.9,167.1-24.6,168.2-43.4"/>
				</g>
				<g id="g2738" transform="translate(575.2813,35.0851)">
					<path id="path2740" fill="#FAC68F" d="M168.2-43.4c1.2,18.5,1.6,24,4.6,27c2.1,2.1,4,3.7,12.8,4.4c-9.6,0.8-9.9,1.6-13,4.7
						c-3,2.9-3.7,3.6-4.3,13.5c-0.6-9.8-1.1-10-4.2-13.4c-3.3-3.6-3-4-13.2-4.8c9.6-0.8,10-1.8,12.8-4.6
						C167-19.9,167.1-24.6,168.2-43.4"/>
				</g>
				<g id="g2742" transform="translate(575.2813,35.0859)">
					<path id="path2744" fill="#FAC690" d="M168.2-43.4c1.2,18.5,1.6,24.1,4.5,27c2.1,2,4,3.7,12.8,4.4c-9.5,0.7-9.9,1.6-13,4.7
						c-2.9,2.9-3.7,3.6-4.3,13.5c-0.6-9.8-1.1-10-4.1-13.4c-3.3-3.6-3.1-4-13.2-4.8c9.6-0.8,10.1-1.8,12.8-4.5
						C167-19.9,167.1-24.6,168.2-43.4"/>
				</g>
				<g id="g2746" transform="translate(575.2813,35.0867)">
					<path id="path2748" fill="#FAC791" d="M168.2-43.4c1.2,18.5,1.6,24.1,4.5,27c2.1,2,4,3.7,12.8,4.3c-9.5,0.7-9.9,1.6-13,4.7
						c-2.9,2.9-3.7,3.6-4.3,13.6c-0.6-9.8-1.1-10-4.1-13.4c-3.3-3.6-3.1-4-13.2-4.8c9.6-0.8,10.1-1.8,12.8-4.5
						C167-19.8,167.1-24.7,168.2-43.4"/>
				</g>
				<g id="g2750" transform="translate(575.2813,35.0874)">
					<path id="path2752" fill="#FAC792" d="M168.2-43.4c1.2,18.4,1.6,24.1,4.5,27c2.1,2,4.1,3.6,12.8,4.3c-9.5,0.7-9.9,1.6-13,4.6
						c-2.9,2.9-3.7,3.7-4.3,13.6c-0.6-9.8-1.1-10.1-4.1-13.4c-3.3-3.6-3.1-4-13.2-4.8c9.5-0.7,10.1-1.8,12.9-4.5
						C167.1-19.8,167.1-24.7,168.2-43.4"/>
				</g>
				<g id="g2754" transform="translate(575.2813,35.0882)">
					<path id="path2756" fill="#FAC893" d="M168.2-43.4c1.2,18.4,1.6,24.1,4.5,27c2,2,4.1,3.6,12.8,4.3c-9.5,0.7-10,1.6-13,4.6
						c-2.9,2.9-3.7,3.7-4.3,13.6c-0.6-9.8-1.1-10.1-4.1-13.4c-3.2-3.6-3.2-4-13.2-4.8c9.5-0.7,10.1-1.8,12.9-4.5
						C167.1-19.8,167.1-24.7,168.2-43.4"/>
				</g>
				<g id="g2758" transform="translate(575.2813,35.0891)">
					<path id="path2760" fill="#FAC894" d="M168.2-43.4c1.2,18.4,1.6,24.1,4.5,27c2,2,4.1,3.6,12.8,4.3c-9.5,0.7-10,1.6-13.1,4.6
						c-2.9,2.8-3.6,3.7-4.3,13.6c-0.6-9.8-1.1-10.1-4.1-13.5c-3.2-3.6-3.2-4-13.2-4.7c9.5-0.7,10.2-1.8,12.9-4.5
						C167.1-19.7,167.1-24.8,168.2-43.4"/>
				</g>
				<g id="g2762" transform="translate(575.2813,35.0899)">
					<path id="path2764" fill="#FBC894" d="M168.2-43.4c1.2,18.3,1.5,24.2,4.5,27.1c2,2,4.1,3.6,12.9,4.3c-9.4,0.7-10,1.6-13.1,4.6
						c-2.9,2.8-3.6,3.8-4.2,13.6c-0.6-9.7-1.1-10.2-4.1-13.5c-3.2-3.6-3.2-3.9-13.3-4.7c9.5-0.7,10.2-1.8,12.9-4.4
						C167.1-19.7,167.1-24.8,168.2-43.4"/>
				</g>
				<g id="g2766" transform="translate(575.2813,35.0907)">
					<path id="path2768" fill="#FBC995" d="M168.2-43.4c1.2,18.3,1.5,24.2,4.4,27.1c2,2,4.2,3.6,12.9,4.3c-9.4,0.7-10,1.6-13.1,4.6
						c-2.9,2.8-3.6,3.8-4.2,13.6c-0.6-9.7-1.1-10.2-4-13.5c-3.2-3.5-3.3-3.9-13.3-4.7c9.4-0.7,10.2-1.7,12.9-4.4
						C167.1-19.7,167.1-24.8,168.2-43.4"/>
				</g>
				<g id="g2770" transform="translate(575.2813,35.0915)">
					<path id="path2772" fill="#FBC996" d="M168.2-43.4c1.2,18.3,1.5,24.2,4.4,27.1c2,2,4.2,3.6,12.9,4.2
						c-9.4,0.7-10.1,1.6-13.1,4.5c-2.9,2.8-3.6,3.8-4.2,13.6c-0.6-9.7-1-10.2-4-13.5c-3.2-3.5-3.3-3.9-13.3-4.7
						c9.4-0.7,10.2-1.7,12.9-4.4C167.1-19.7,167.1-24.8,168.2-43.4"/>
				</g>
				<g id="g2774" transform="translate(575.2813,35.0923)">
					<path id="path2776" fill="#FBC996" d="M168.2-43.4c1.2,18.3,1.5,24.2,4.4,27.1c2,2,4.2,3.5,12.9,4.2
						c-9.4,0.7-10.1,1.6-13.1,4.5c-2.9,2.8-3.6,3.9-4.2,13.7c-0.6-9.7-1-10.2-4-13.5c-3.2-3.5-3.3-3.9-13.3-4.7
						c9.4-0.7,10.2-1.7,12.9-4.4C167.1-19.6,167.1-24.9,168.2-43.4"/>
				</g>
				<g id="g2778" transform="translate(575.2813,35.0931)">
					<path id="path2780" fill="#FBCA98" d="M168.2-43.4c1.1,18.2,1.5,24.3,4.4,27.1c2,2,4.3,3.5,12.9,4.2
						c-9.4,0.7-10.1,1.5-13.1,4.5c-2.9,2.8-3.6,3.9-4.2,13.7c-0.6-9.7-1-10.3-4-13.5c-3.2-3.5-3.4-3.9-13.3-4.6
						c9.4-0.7,10.3-1.7,12.9-4.4C167.1-19.6,167.1-24.9,168.2-43.4"/>
				</g>
				<g id="g2782" transform="translate(575.2813,35.0939)">
					<path id="path2784" fill="#FBCA98" d="M168.2-43.4c1.1,18.2,1.5,24.3,4.4,27.1c2,2,4.3,3.5,12.9,4.2
						c-9.4,0.7-10.1,1.5-13.1,4.5c-2.8,2.8-3.5,3.9-4.2,13.7c-0.6-9.7-1-10.3-4-13.6c-3.1-3.5-3.4-3.8-13.3-4.6
						c9.3-0.7,10.3-1.7,13-4.4C167.1-19.6,167.1-24.9,168.2-43.4"/>
				</g>
				<g id="g2786" transform="translate(575.2813,35.0947)">
					<path id="path2788" fill="#FBCB99" d="M168.2-43.4c1.1,18.2,1.5,24.3,4.4,27.1c2,2,4.3,3.5,12.9,4.2
						c-9.3,0.7-10.2,1.5-13.2,4.5c-2.8,2.8-3.5,4-4.1,13.7c-0.6-9.6-1-10.3-4-13.6c-3.1-3.5-3.4-3.8-13.3-4.6
						c9.3-0.7,10.3-1.7,13-4.3C167.1-19.5,167.1-25,168.2-43.4"/>
				</g>
				<g id="g2790" transform="translate(575.2813,35.0955)">
					<path id="path2792" fill="#FBCB9A" d="M168.2-43.4c1.1,18.1,1.5,24.3,4.3,27.2c2,2,4.4,3.5,13,4.1c-9.3,0.7-10.2,1.5-13.2,4.5
						c-2.8,2.8-3.5,4-4.1,13.7c-0.6-9.6-1-10.4-3.9-13.6c-3.1-3.4-3.5-3.8-13.3-4.6c9.3-0.7,10.3-1.7,13-4.3
						C167.1-19.5,167.1-25,168.2-43.4"/>
				</g>
				<g id="g2794" transform="translate(575.2813,35.0963)">
					<path id="path2796" fill="#FBCC9B" d="M168.2-43.4c1.1,18.1,1.5,24.4,4.3,27.2c2,2,4.4,3.5,13,4.1c-9.3,0.7-10.2,1.5-13.2,4.4
						c-2.8,2.8-3.5,4-4.1,13.7c-0.6-9.6-1-10.4-3.9-13.6c-3.1-3.4-3.5-3.8-13.4-4.6c9.3-0.7,10.4-1.7,13-4.3
						C167.1-19.5,167.1-25,168.2-43.4"/>
				</g>
				<g id="g2798" transform="translate(575.2813,35.0971)">
					<path id="path2800" fill="#FBCC9B" d="M168.2-43.4c1.1,18.1,1.5,24.4,4.3,27.2c2,2,4.4,3.4,13,4.1c-9.3,0.7-10.2,1.5-13.2,4.4
						c-2.8,2.7-3.5,4.1-4.1,13.8c-0.6-9.6-1-10.4-3.9-13.6c-3.1-3.4-3.5-3.8-13.4-4.6c9.3-0.7,10.4-1.7,13-4.3
						C167.1-19.4,167.1-25.1,168.2-43.4"/>
				</g>
				<g id="g2802" transform="translate(575.2813,35.0978)">
					<path id="path2804" fill="#FBCD9C" d="M168.2-43.4c1.1,18,1.5,24.4,4.3,27.2c2,2,4.5,3.4,13,4.1c-9.3,0.7-10.3,1.5-13.2,4.4
						c-2.8,2.7-3.5,4.1-4.1,13.8c-0.6-9.6-1-10.5-3.9-13.6c-3.1-3.4-3.6-3.8-13.4-4.5c9.2-0.7,10.4-1.7,13-4.3
						C167.1-19.4,167.1-25.1,168.2-43.4"/>
				</g>
				<g id="g2806" transform="translate(575.2813,35.0986)">
					<path id="path2808" fill="#FBCD9D" d="M168.2-43.4c1.1,18,1.5,24.4,4.3,27.2c2,2,4.5,3.4,13,4.1c-9.3,0.7-10.3,1.5-13.2,4.4
						c-2.8,2.7-3.4,4.1-4.1,13.8c-0.6-9.5-1-10.5-3.9-13.6c-3.1-3.4-3.6-3.7-13.4-4.5c9.2-0.7,10.4-1.6,13-4.2
						C167.1-19.4,167.1-25.1,168.2-43.4"/>
				</g>
				<g id="g2810" transform="translate(575.2813,35.0994)">
					<path id="path2812" fill="#FBCD9E" d="M168.2-43.3c1.1,18,1.5,24.5,4.2,27.2c2,2,4.5,3.4,13,4.1c-9.2,0.7-10.3,1.5-13.2,4.4
						c-2.8,2.7-3.4,4.1-4,13.8c-0.6-9.5-1-10.5-3.9-13.7c-3.1-3.4-3.6-3.7-13.4-4.5c9.2-0.7,10.4-1.6,13-4.2
						C167.1-19.3,167.1-25.1,168.2-43.3"/>
				</g>
				<g id="g2814" transform="translate(575.2813,35.1003)">
					<path id="path2816" fill="#FBCD9F" d="M168.2-43.3c1.1,17.9,1.4,24.5,4.2,27.2c2,2,4.5,3.4,13,4c-9.2,0.7-10.3,1.5-13.2,4.3
						c-2.8,2.7-3.4,4.2-4,13.8c-0.6-9.5-1-10.5-3.8-13.7c-3-3.4-3.7-3.7-13.4-4.5c9.2-0.7,10.5-1.6,13.1-4.2
						C167.1-19.3,167.1-25.2,168.2-43.3"/>
				</g>
				<g id="g2818" transform="translate(575.2813,35.1011)">
					<path id="path2820" fill="#FBCEA0" d="M168.2-43.3c1.1,17.9,1.4,24.5,4.2,27.3c2,2,4.6,3.4,13.1,4c-9.2,0.7-10.4,1.5-13.3,4.3
						c-2.7,2.7-3.4,4.2-4,13.8c-0.6-9.5-1-10.6-3.8-13.7c-3-3.3-3.7-3.7-13.4-4.5c9.1-0.7,10.5-1.6,13.1-4.2
						C167.1-19.3,167.1-25.2,168.2-43.3"/>
				</g>
				<g id="g2822" transform="translate(575.2813,35.1019)">
					<path id="path2824" fill="#FBCEA0" d="M168.2-43.3c1.1,17.9,1.4,24.5,4.2,27.3c2,2,4.6,3.3,13.1,4c-9.2,0.7-10.4,1.5-13.3,4.3
						c-2.7,2.7-3.4,4.2-4,13.8c-0.6-9.5-1-10.6-3.8-13.7c-3-3.3-3.7-3.7-13.4-4.4c9.1-0.7,10.5-1.6,13.1-4.2
						C167.1-19.3,167.1-25.2,168.2-43.3"/>
				</g>
				<g id="g2826" transform="translate(575.2813,35.1026)">
					<path id="path2828" fill="#FBCFA1" d="M168.2-43.3c1.1,17.8,1.4,24.6,4.2,27.3c2,2,4.6,3.3,13.1,4c-9.2,0.7-10.4,1.5-13.3,4.3
						c-2.7,2.7-3.4,4.3-4,13.9c-0.6-9.5-1-10.6-3.8-13.7c-3-3.3-3.7-3.7-13.5-4.4c9.1-0.7,10.5-1.6,13.1-4.1
						C167.1-19.2,167.1-25.3,168.2-43.3"/>
				</g>
				<g id="g2830" transform="translate(575.2813,35.1035)">
					<path id="path2832" fill="#FBCFA2" d="M168.2-43.3c1.1,17.8,1.4,24.6,4.2,27.3c2,2,4.7,3.3,13.1,4c-9.2,0.7-10.4,1.5-13.3,4.3
						c-2.7,2.7-3.3,4.3-4,13.9c-0.6-9.4-1-10.7-3.8-13.7c-3-3.3-3.8-3.6-13.5-4.4c9.1-0.7,10.6-1.6,13.1-4.1
						C167.1-19.2,167.1-25.3,168.2-43.3"/>
				</g>
				<g id="g2834" transform="translate(575.2813,35.1043)">
					<path id="path2836" fill="#FBD0A3" d="M168.2-43.3c1.1,17.8,1.4,24.6,4.1,27.3c2,2,4.7,3.3,13.1,4c-9.1,0.7-10.5,1.5-13.3,4.2
						c-2.7,2.6-3.3,4.3-3.9,13.9c-0.6-9.4-1-10.7-3.8-13.7c-3-3.3-3.8-3.6-13.5-4.4c9-0.7,10.6-1.6,13.1-4.1
						C167.1-19.2,167.1-25.3,168.2-43.3"/>
				</g>
				<g id="g2838" transform="translate(575.2813,35.1051)">
					<path id="path2840" fill="#FBD0A4" d="M168.2-43.3c1.1,17.7,1.4,24.6,4.1,27.3c2,1.9,4.7,3.3,13.1,3.9
						c-9.1,0.7-10.5,1.4-13.3,4.2c-2.7,2.6-3.3,4.4-3.9,13.9c-0.6-9.4-1-10.7-3.7-13.8c-3-3.3-3.8-3.6-13.5-4.4
						c9-0.7,10.6-1.6,13.1-4.1C167.2-19.1,167.1-25.4,168.2-43.3"/>
				</g>
				<g id="g2842" transform="translate(575.2813,35.1059)">
					<path id="path2844" fill="#FBD1A5" d="M168.2-43.3c1.1,17.7,1.4,24.7,4.1,27.3c2,1.9,4.8,3.3,13.1,3.9
						c-9.1,0.7-10.5,1.4-13.3,4.2c-2.7,2.6-3.3,4.4-3.9,13.9c-0.6-9.4-1-10.7-3.7-13.8c-2.9-3.2-3.9-3.6-13.5-4.3
						c9-0.7,10.6-1.6,13.2-4.1C167.2-19.1,167.1-25.4,168.2-43.3"/>
				</g>
				<g id="g2846" transform="translate(575.2813,35.1066)">
					<path id="path2848" fill="#FBD1A6" d="M168.2-43.3c1.1,17.7,1.4,24.7,4.1,27.4c2,1.9,4.8,3.2,13.1,3.9
						c-9.1,0.7-10.5,1.4-13.3,4.2c-2.7,2.6-3.3,4.4-3.9,13.9c-0.6-9.4-1-10.8-3.7-13.8c-2.9-3.2-3.9-3.6-13.5-4.3
						c9-0.7,10.6-1.5,13.2-4C167.2-19.1,167.1-25.4,168.2-43.3"/>
				</g>
				<g id="g2850" transform="translate(575.2813,35.1075)">
					<path id="path2852" fill="#FCD2A7" d="M168.2-43.3c1.1,17.7,1.4,24.7,4.1,27.4c2,1.9,4.8,3.2,13.2,3.9
						c-9.1,0.7-10.6,1.4-13.4,4.2c-2.7,2.6-3.3,4.5-3.9,14c-0.6-9.4-1-10.8-3.7-13.8c-2.9-3.2-3.9-3.6-13.5-4.3
						c9-0.7,10.7-1.5,13.2-4C167.2-19,167.1-25.5,168.2-43.3"/>
				</g>
				<g id="g2854" transform="translate(575.2813,35.1082)">
					<path id="path2856" fill="#FCD2A7" d="M168.2-43.3c1.1,17.6,1.4,24.7,4.1,27.4c1.9,1.9,4.9,3.2,13.2,3.9
						c-9.1,0.7-10.6,1.4-13.4,4.1c-2.7,2.6-3.3,4.5-3.9,14c-0.6-9.3-1-10.8-3.7-13.8c-2.9-3.2-4-3.5-13.5-4.3
						c8.9-0.7,10.7-1.5,13.2-4C167.2-19,167.1-25.5,168.2-43.3"/>
				</g>
				<g id="g2858" transform="translate(575.2813,35.109)">
					<path id="path2860" fill="#FCD2A8" d="M168.2-43.3c1.1,17.6,1.4,24.7,4,27.4c1.9,1.9,4.9,3.2,13.2,3.8
						c-9,0.7-10.6,1.4-13.4,4.1c-2.6,2.6-3.2,4.5-3.8,14c-0.6-9.3-1-10.9-3.7-13.8c-2.9-3.2-4-3.5-13.6-4.3c8.9-0.7,10.7-1.5,13.2-4
						C167.2-19,167.1-25.5,168.2-43.3"/>
				</g>
				<g id="g2862" transform="translate(575.2813,35.1098)">
					<path id="path2864" fill="#FCD2A9" d="M168.2-43.3c1.1,17.6,1.4,24.8,4,27.4c1.9,1.9,4.9,3.2,13.2,3.8
						c-9,0.7-10.6,1.4-13.4,4.1c-2.6,2.6-3.2,4.5-3.8,14c-0.6-9.3-1-10.9-3.7-13.9c-2.9-3.2-4-3.5-13.6-4.2c8.9-0.7,10.7-1.5,13.2-4
						C167.2-18.9,167.1-25.5,168.2-43.3"/>
				</g>
				<g id="g2866" transform="translate(575.2813,35.1106)">
					<path id="path2868" fill="#FCD3AA" d="M168.2-43.3c1.1,17.5,1.3,24.8,4,27.4c1.9,1.9,4.9,3.2,13.2,3.8
						c-9,0.7-10.7,1.4-13.4,4.1c-2.6,2.6-3.2,4.6-3.8,14c-0.6-9.3-1-10.9-3.6-13.9c-2.9-3.2-4.1-3.5-13.6-4.2
						c8.9-0.7,10.8-1.5,13.2-3.9C167.2-18.9,167.1-25.6,168.2-43.3"/>
				</g>
				<g id="g2870" transform="translate(575.2813,35.1114)">
					<path id="path2872" fill="#FCD3AA" d="M168.2-43.3c1.1,17.5,1.3,24.8,4,27.4c1.9,1.9,5,3.1,13.2,3.8c-9,0.7-10.7,1.4-13.4,4.1
						c-2.6,2.6-3.2,4.6-3.8,14c-0.6-9.3-1-10.9-3.6-13.9c-2.8-3.1-4.1-3.5-13.6-4.2c8.8-0.7,10.8-1.5,13.2-3.9
						C167.2-18.9,167.1-25.6,168.2-43.3"/>
				</g>
				<g id="g2874" transform="translate(575.2813,35.1122)">
					<path id="path2876" fill="#FCD4AC" d="M168.2-43.3c1.1,17.5,1.3,24.8,4,27.5c1.9,1.9,5,3.1,13.2,3.8c-9,0.7-10.7,1.4-13.4,4.1
						c-2.6,2.5-3.2,4.6-3.8,14c-0.6-9.3-0.9-11-3.6-13.9c-2.8-3.1-4.1-3.4-13.6-4.2c8.8-0.7,10.8-1.5,13.3-3.9
						C167.2-18.9,167.1-25.6,168.2-43.3"/>
				</g>
				<g id="g2878" transform="translate(575.2813,35.1131)">
					<path id="path2880" fill="#FCD4AC" d="M168.2-43.3c1.1,17.4,1.3,24.9,3.9,27.5c1.9,1.9,5,3.1,13.3,3.8c-9,0.7-10.7,1.4-13.5,4
						c-2.6,2.5-3.2,4.7-3.8,14.1c-0.6-9.2-0.9-11-3.6-13.9c-2.8-3.1-4.2-3.4-13.6-4.2c8.8-0.7,10.8-1.5,13.3-3.9
						C167.2-18.8,167.1-25.7,168.2-43.3"/>
				</g>
				<g id="g2882" transform="translate(575.2813,35.1139)">
					<path id="path2884" fill="#FCD5AD" d="M168.2-43.3c1.1,17.4,1.3,24.9,3.9,27.5c1.9,1.9,5.1,3.1,13.3,3.7
						c-8.9,0.7-10.8,1.4-13.5,4c-2.6,2.5-3.1,4.7-3.7,14.1c-0.6-9.2-0.9-11-3.6-13.9c-2.8-3.1-4.2-3.4-13.6-4.2
						c8.8-0.7,10.9-1.5,13.3-3.9C167.2-18.8,167.1-25.7,168.2-43.3"/>
				</g>
				<g id="g2886" transform="translate(575.2813,35.1147)">
					<path id="path2888" fill="#FCD5AD" d="M168.2-43.3c1.1,17.4,1.3,24.9,3.9,27.5c1.9,1.9,5.1,3.1,13.3,3.7
						c-8.9,0.7-10.8,1.4-13.5,4c-2.6,2.5-3.1,4.7-3.7,14.1c-0.6-9.2-0.9-11.1-3.6-13.9c-2.8-3.1-4.2-3.4-13.6-4.1
						c8.7-0.7,10.9-1.4,13.3-3.9C167.2-18.8,167.1-25.7,168.2-43.3"/>
				</g>
				<g id="g2890" transform="translate(575.2813,35.1155)">
					<path id="path2892" fill="#FCD6AE" d="M168.2-43.3c1.1,17.3,1.3,24.9,3.9,27.5c1.9,1.9,5.1,3.1,13.3,3.7
						c-8.9,0.7-10.8,1.4-13.5,4c-2.6,2.5-3.1,4.8-3.7,14.1c-0.6-9.2-0.9-11.1-3.5-14c-2.8-3.1-4.3-3.4-13.7-4.1
						c8.7-0.7,10.9-1.4,13.3-3.8C167.2-18.7,167.1-25.8,168.2-43.3"/>
				</g>
				<g id="g2894" transform="translate(575.2813,35.1163)">
					<path id="path2896" fill="#FCD6AF" d="M168.2-43.3c1.1,17.3,1.3,25,3.9,27.5c1.9,1.9,5.2,3,13.3,3.7c-8.9,0.7-10.8,1.4-13.5,4
						c-2.5,2.5-3.1,4.8-3.7,14.1c-0.6-9.2-0.9-11.1-3.5-14c-2.8-3.1-4.3-3.4-13.7-4.1c8.7-0.7,10.9-1.4,13.3-3.8
						C167.2-18.7,167.1-25.8,168.2-43.3"/>
				</g>
				<g id="g2898" transform="translate(575.2813,35.1171)">
					<path id="path2900" fill="#FCD6B0" d="M168.2-43.3c1.1,17.3,1.3,25,3.9,27.5c1.9,1.9,5.2,3,13.3,3.7
						c-8.9,0.7-10.9,1.3-13.5,3.9c-2.5,2.5-3.1,4.8-3.7,14.1c-0.6-9.2-0.9-11.1-3.5-14c-2.7-3-4.3-3.3-13.7-4.1
						c8.7-0.7,10.9-1.4,13.3-3.8C167.2-18.7,167.1-25.8,168.2-43.3"/>
				</g>
				<g id="g2902" transform="translate(575.2813,35.1179)">
					<path id="path2904" fill="#FCD7B1" d="M168.2-43.3c1.1,17.2,1.3,25,3.8,27.6c1.9,1.9,5.2,3,13.3,3.7
						c-8.9,0.7-10.9,1.3-13.5,3.9c-2.5,2.5-3.1,4.9-3.7,14.2c-0.6-9.1-0.9-11.2-3.5-14c-2.7-3-4.4-3.3-13.7-4.1
						c8.7-0.7,11-1.4,13.4-3.8C167.2-18.6,167.1-25.9,168.2-43.3"/>
				</g>
				<g id="g2906" transform="translate(575.2813,35.1186)">
					<path id="path2908" fill="#FCD7B2" d="M168.2-43.3c1.1,17.2,1.3,25,3.8,27.6c1.9,1.9,5.3,3,13.4,3.6
						c-8.8,0.7-10.9,1.3-13.5,3.9c-2.5,2.5-3.1,4.9-3.6,14.2c-0.6-9.1-0.9-11.2-3.5-14c-2.7-3-4.4-3.3-13.7-4
						c8.6-0.7,11-1.4,13.4-3.8C167.2-18.6,167.1-25.9,168.2-43.3"/>
				</g>
				<g id="g2910" transform="translate(575.2813,35.1194)">
					<path id="path2912" fill="#FCD8B3" d="M168.2-43.3c1.1,17.2,1.3,25.1,3.8,27.6c1.9,1.9,5.3,3,13.4,3.6
						c-8.8,0.7-10.9,1.3-13.6,3.9c-2.5,2.4-3,4.9-3.6,14.2c-0.6-9.1-0.9-11.2-3.5-14c-2.7-3-4.4-3.3-13.7-4c8.6-0.7,11-1.4,13.4-3.7
						C167.2-18.6,167.1-25.9,168.2-43.3"/>
				</g>
				<g id="g2914" transform="translate(575.2813,35.1202)">
					<path id="path2916" fill="#FCD8B3" d="M168.2-43.3c1.1,17.1,1.3,25.1,3.8,27.6c1.9,1.9,5.3,3,13.4,3.6
						c-8.8,0.7-11,1.3-13.6,3.9c-2.5,2.4-3,5-3.6,14.2c-0.6-9.1-0.9-11.3-3.4-14.1c-2.7-3-4.5-3.3-13.7-4c8.6-0.7,11-1.4,13.4-3.7
						C167.2-18.5,167.2-25.9,168.2-43.3"/>
				</g>
				<g id="g2918" transform="translate(575.2813,35.121)">
					<path id="path2920" fill="#FCD9B4" d="M168.2-43.3c1.1,17.1,1.2,25.1,3.8,27.6c1.9,1.9,5.4,2.9,13.4,3.6
						c-8.8,0.7-11,1.3-13.6,3.8c-2.5,2.4-3,5-3.6,14.2c-0.6-9.1-0.9-11.3-3.4-14.1c-2.7-3-4.5-3.3-13.7-4c8.6-0.7,11.1-1.4,13.4-3.7
						C167.2-18.5,167.2-26,168.2-43.3"/>
				</g>
				<g id="g2922" transform="translate(575.2813,35.1218)">
					<path id="path2924" fill="#FCD9B5" d="M168.2-43.3c1.1,17.1,1.2,25.1,3.8,27.6c1.9,1.9,5.4,2.9,13.4,3.6
						c-8.8,0.7-11,1.3-13.6,3.8c-2.5,2.4-3,5-3.6,14.2c-0.6-9.1-0.9-11.3-3.4-14.1c-2.7-2.9-4.5-3.2-13.8-4
						c8.5-0.7,11.1-1.4,13.4-3.7C167.2-18.5,167.2-26,168.2-43.3"/>
				</g>
				<g id="g2926" transform="translate(575.2813,35.1226)">
					<path id="path2928" fill="#FCDAB6" d="M168.2-43.3c1.1,17.1,1.2,25.2,3.7,27.6c1.9,1.9,5.4,2.9,13.4,3.5
						c-8.7,0.7-11,1.3-13.6,3.8c-2.5,2.4-3,5-3.6,14.2c-0.6-9-0.9-11.3-3.4-14.1c-2.7-2.9-4.5-3.2-13.8-3.9
						c8.5-0.7,11.1-1.3,13.4-3.7C167.3-18.5,167.2-26,168.2-43.3"/>
				</g>
				<g id="g2930" transform="translate(575.2813,35.1234)">
					<path id="path2932" fill="#FCDAB7" d="M168.2-43.3c1.1,17,1.2,25.2,3.7,27.7c1.9,1.8,5.4,2.9,13.4,3.5
						c-8.7,0.7-11.1,1.3-13.6,3.8c-2.4,2.4-3,5.1-3.5,14.3c-0.6-9-0.9-11.4-3.4-14.1c-2.6-2.9-4.6-3.2-13.8-3.9
						c8.5-0.7,11.1-1.3,13.4-3.6C167.3-18.4,167.2-26.1,168.2-43.3"/>
				</g>
				<g id="g2934" transform="translate(575.2813,35.1242)">
					<path id="path2936" fill="#FDDBB8" d="M168.2-43.3c1.1,17,1.2,25.2,3.7,27.7c1.9,1.8,5.5,2.9,13.5,3.5
						c-8.7,0.7-11.1,1.3-13.6,3.8c-2.4,2.4-2.9,5.1-3.5,14.3c-0.6-9-0.9-11.4-3.4-14.1c-2.6-2.9-4.6-3.2-13.8-3.9
						c8.5-0.7,11.1-1.3,13.5-3.6C167.3-18.4,167.2-26.1,168.2-43.3"/>
				</g>
				<g id="g2938" transform="translate(575.2813,35.125)">
					<path id="path2940" fill="#FDDBB8" d="M168.2-43.3c1.1,17,1.2,25.2,3.7,27.7c1.9,1.8,5.5,2.9,13.5,3.5
						c-8.7,0.7-11.1,1.3-13.7,3.7c-2.4,2.4-2.9,5.1-3.5,14.3c-0.6-9-0.9-11.4-3.3-14.1c-2.6-2.9-4.6-3.2-13.8-3.9
						c8.5-0.7,11.2-1.3,13.5-3.6C167.3-18.4,167.2-26.1,168.2-43.3"/>
				</g>
				<g id="g2942" transform="translate(575.2813,35.1259)">
					<path id="path2944" fill="#FDDBB9" d="M168.2-43.3c1.1,16.9,1.2,25.3,3.7,27.7c1.8,1.8,5.5,2.8,13.5,3.5
						c-8.7,0.7-11.2,1.3-13.7,3.7c-2.4,2.4-2.9,5.2-3.5,14.3c-0.6-9-0.9-11.5-3.3-14.2c-2.6-2.9-4.7-3.1-13.8-3.9
						c8.4-0.7,11.2-1.3,13.5-3.6C167.3-18.3,167.2-26.2,168.2-43.3"/>
				</g>
				<g id="g2946" transform="translate(575.2813,35.1267)">
					<path id="path2948" fill="#FDDBB9" d="M168.2-43.3c1.1,16.9,1.2,25.3,3.7,27.7c1.8,1.8,5.6,2.8,13.5,3.5
						c-8.7,0.7-11.2,1.3-13.7,3.7c-2.4,2.4-2.9,5.2-3.5,14.3c-0.6-9-0.9-11.5-3.3-14.2c-2.6-2.9-4.7-3.1-13.8-3.9
						c8.4-0.7,11.2-1.3,13.5-3.6C167.3-18.3,167.2-26.2,168.2-43.3"/>
				</g>
				<g id="g2950" transform="translate(575.2813,35.1274)">
					<path id="path2952" fill="#FDDCBB" d="M168.2-43.2c1.1,16.9,1.2,25.3,3.6,27.7c1.8,1.8,5.6,2.8,13.5,3.4
						c-8.6,0.7-11.2,1.3-13.7,3.7c-2.4,2.3-2.9,5.2-3.4,14.3C167.7-3,167.4-5.6,165-8.3c-2.6-2.8-4.7-3.1-13.8-3.8
						c8.4-0.7,11.2-1.3,13.5-3.5C167.3-18.3,167.2-26.2,168.2-43.2"/>
				</g>
				<g id="g2954" transform="translate(575.2813,35.1283)">
					<path id="path2956" fill="#FDDCBB" d="M168.2-43.2c1.1,16.8,1.2,25.3,3.6,27.7c1.8,1.8,5.6,2.8,13.5,3.4
						c-8.6,0.7-11.2,1.2-13.7,3.7c-2.4,2.3-2.9,5.3-3.4,14.4C167.7-3,167.4-5.6,165-8.3c-2.6-2.8-4.8-3.1-13.9-3.8
						c8.4-0.7,11.3-1.3,13.5-3.5C167.3-18.2,167.2-26.2,168.2-43.2"/>
				</g>
				<g id="g2958" transform="translate(575.2813,35.129)">
					<path id="path2960" fill="#FDDDBC" d="M168.2-43.2c1.1,16.8,1.2,25.4,3.6,27.8c1.8,1.8,5.7,2.8,13.5,3.4
						c-8.6,0.7-11.3,1.2-13.7,3.6c-2.4,2.3-2.8,5.3-3.4,14.4C167.7-3,167.4-5.6,165-8.3c-2.5-2.8-4.8-3.1-13.9-3.8
						c8.3-0.7,11.3-1.3,13.5-3.5C167.3-18.2,167.2-26.3,168.2-43.2"/>
				</g>
				<g id="g2962" transform="translate(575.2813,35.1298)">
					<path id="path2964" fill="#FDDDBD" d="M168.2-43.2c1.1,16.8,1.2,25.4,3.6,27.8c1.8,1.8,5.7,2.8,13.5,3.4
						c-8.6,0.7-11.3,1.2-13.7,3.6c-2.4,2.3-2.8,5.3-3.4,14.4C167.7-3,167.4-5.7,165-8.3c-2.5-2.8-4.8-3.1-13.9-3.8
						c8.3-0.7,11.3-1.3,13.6-3.5C167.3-18.2,167.2-26.3,168.2-43.2"/>
				</g>
				<g id="g2966" transform="translate(575.2813,35.1306)">
					<path id="path2968" fill="#FDDEBE" d="M168.2-43.2c1.1,16.7,1.2,25.4,3.6,27.8c1.8,1.8,5.7,2.7,13.6,3.4
						c-8.6,0.7-11.3,1.2-13.7,3.6c-2.4,2.3-2.8,5.4-3.4,14.4c-0.6-8.9-0.9-11.6-3.2-14.3c-2.5-2.8-4.9-3-13.9-3.8
						c8.3-0.7,11.3-1.3,13.6-3.5C167.3-18.2,167.2-26.3,168.2-43.2"/>
				</g>
				<g id="g2970" transform="translate(575.2813,35.1314)">
					<path id="path2972" fill="#FDDEBF" d="M168.2-43.2c1.1,16.7,1.1,25.4,3.5,27.8c1.8,1.8,5.8,2.7,13.6,3.3
						c-8.6,0.7-11.3,1.2-13.8,3.6c-2.3,2.3-2.8,5.4-3.4,14.4c-0.6-8.8-0.9-11.7-3.2-14.3c-2.5-2.8-4.9-3-13.9-3.7
						c8.3-0.6,11.3-1.2,13.6-3.4C167.3-18.1,167.2-26.4,168.2-43.2"/>
				</g>
				<g id="g2974" transform="translate(575.2813,35.1322)">
					<path id="path2976" fill="#FDDFC0" d="M168.2-43.2c1.1,16.7,1.1,25.4,3.5,27.8c1.8,1.8,5.8,2.7,13.6,3.3
						c-8.5,0.7-11.4,1.2-13.8,3.6c-2.3,2.3-2.8,5.4-3.4,14.4c-0.6-8.8-0.9-11.7-3.2-14.3c-2.5-2.8-4.9-3-13.9-3.7
						c8.2-0.7,11.4-1.2,13.6-3.4C167.3-18.1,167.2-26.4,168.2-43.2"/>
				</g>
				<g id="g2978" transform="translate(575.2813,35.133)">
					<path id="path2980" fill="#FDDFC0" d="M168.2-43.2c1.1,16.6,1.1,25.5,3.5,27.8c1.8,1.8,5.8,2.7,13.6,3.3
						c-8.5,0.7-11.4,1.2-13.8,3.6c-2.3,2.3-2.8,5.5-3.3,14.4c-0.6-8.8-0.8-11.7-3.2-14.3c-2.5-2.7-5-3-13.9-3.7
						c8.2-0.6,11.4-1.2,13.6-3.4C167.3-18.1,167.2-26.4,168.2-43.2"/>
				</g>
				<g id="g2982" transform="translate(575.2813,35.1338)">
					<path id="path2984" fill="#FDE0C1" d="M168.2-43.2c1.1,16.6,1.1,25.5,3.5,27.8c1.8,1.8,5.8,2.7,13.6,3.3
						c-8.5,0.7-11.4,1.2-13.8,3.5c-2.3,2.3-2.7,5.5-3.3,14.5c-0.6-8.8-0.8-11.7-3.2-14.3c-2.5-2.7-5-3-13.9-3.7
						c8.2-0.6,11.4-1.2,13.6-3.4C167.3-18,167.2-26.5,168.2-43.2"/>
				</g>
				<g id="g2986" transform="translate(575.2813,35.1346)">
					<path id="path2988" fill="#FDE0C2" d="M168.2-43.2c1,16.6,1.1,25.5,3.5,27.9c1.8,1.8,5.9,2.7,13.6,3.3
						c-8.5,0.7-11.4,1.2-13.8,3.5c-2.3,2.3-2.7,5.5-3.3,14.5c-0.6-8.8-0.8-11.8-3.1-14.3c-2.4-2.7-5-3-14-3.7
						c8.2-0.6,11.4-1.2,13.6-3.4C167.3-18,167.2-26.5,168.2-43.2"/>
				</g>
				<g id="g2990" transform="translate(575.2813,35.1354)">
					<path id="path2992" fill="#FDE0C3" d="M168.2-43.2c1,16.6,1.1,25.5,3.5,27.9c1.8,1.8,5.9,2.7,13.6,3.3
						c-8.5,0.7-11.5,1.2-13.8,3.5c-2.3,2.2-2.7,5.5-3.3,14.5c-0.6-8.8-0.8-11.8-3.1-14.3c-2.4-2.7-5.1-2.9-14-3.6
						c8.2-0.6,11.5-1.2,13.6-3.4C167.3-18,167.2-26.5,168.2-43.2"/>
				</g>
				<g id="g2994" transform="translate(575.2813,35.1362)">
					<path id="path2996" fill="#FDE1C3" d="M168.2-43.2c1,16.5,1.1,25.6,3.4,27.9c1.8,1.8,5.9,2.6,13.7,3.2
						c-8.5,0.7-11.5,1.2-13.8,3.5c-2.3,2.2-2.7,5.6-3.3,14.5c-0.6-8.7-0.8-11.8-3.1-14.4c-2.4-2.7-5.1-2.9-14-3.6
						c8.1-0.6,11.5-1.2,13.7-3.3C167.3-17.9,167.2-26.6,168.2-43.2"/>
				</g>
				<g id="g2998" transform="translate(575.2813,35.137)">
					<path id="path3000" fill="#FDE1C4" d="M168.2-43.2c1,16.5,1.1,25.6,3.4,27.9c1.8,1.8,6,2.6,13.7,3.2
						c-8.4,0.7-11.5,1.2-13.8,3.5c-2.3,2.2-2.7,5.6-3.2,14.5c-0.6-8.7-0.8-11.9-3.1-14.4c-2.4-2.7-5.1-2.9-14-3.6
						c8.1-0.6,11.5-1.2,13.7-3.3C167.3-17.9,167.2-26.6,168.2-43.2"/>
				</g>
				<g id="g3002" transform="translate(575.2813,35.1378)">
					<path id="path3004" fill="#FDE1C5" d="M168.2-43.2c1,16.5,1.1,25.6,3.4,27.9c1.8,1.8,6,2.6,13.7,3.2
						c-8.4,0.7-11.5,1.2-13.9,3.4c-2.3,2.2-2.7,5.6-3.2,14.5c-0.6-8.7-0.8-11.9-3.1-14.4c-2.4-2.6-5.2-2.9-14-3.6
						c8.1-0.6,11.5-1.2,13.7-3.3C167.3-17.9,167.2-26.6,168.2-43.2"/>
				</g>
				<g id="g3006" transform="translate(575.2813,35.1386)">
					<path id="path3008" fill="#FDE2C5" d="M168.2-43.2c1,16.4,1.1,25.6,3.4,27.9c1.8,1.8,6,2.6,13.7,3.2
						c-8.4,0.7-11.6,1.2-13.9,3.4c-2.3,2.2-2.7,5.7-3.2,14.5c-0.6-8.7-0.8-11.9-3.1-14.4c-2.4-2.6-5.2-2.9-14-3.6
						c8.1-0.6,11.5-1.2,13.7-3.3C167.3-17.8,167.2-26.6,168.2-43.2"/>
				</g>
				<g id="g3010" transform="translate(575.2813,35.1394)">
					<path id="path3012" fill="#FDE2C6" d="M168.2-43.2c1,16.4,1.1,25.7,3.4,27.9c1.8,1.8,6.1,2.6,13.7,3.2
						c-8.4,0.7-11.6,1.1-13.9,3.4c-2.2,2.2-2.6,5.7-3.2,14.6c-0.5-8.7-0.8-11.9-3-14.4c-2.4-2.6-5.2-2.9-14-3.6
						c8-0.6,11.6-1.1,13.7-3.3C167.4-17.8,167.2-26.7,168.2-43.2"/>
				</g>
				<g id="g3014" transform="translate(575.2813,35.1402)">
					<path id="path3016" fill="#FDE3C7" d="M168.2-43.2c1,16.4,1.1,25.7,3.4,28c1.8,1.8,6.1,2.5,13.7,3.2
						c-8.4,0.7-11.6,1.1-13.9,3.4c-2.2,2.2-2.6,5.7-3.2,14.6c-0.5-8.7-0.8-12-3-14.4c-2.4-2.6-5.3-2.8-14-3.5
						c8-0.6,11.6-1.1,13.7-3.2C167.4-17.8,167.2-26.7,168.2-43.2"/>
				</g>
				<g id="g3018" transform="translate(575.2813,35.141)">
					<path id="path3020" fill="#FDE3C8" d="M168.2-43.2c1,16.3,1.1,25.7,3.3,28c1.8,1.8,6.1,2.5,13.7,3.1
						c-8.3,0.7-11.6,1.1-13.9,3.4c-2.2,2.2-2.6,5.8-3.2,14.6c-0.5-8.6-0.8-12-3-14.4c-2.3-2.6-5.3-2.8-14.1-3.5
						c8-0.6,11.6-1.1,13.7-3.2C167.4-17.8,167.2-26.7,168.2-43.2"/>
				</g>
				<g id="g3022" transform="translate(575.2813,35.1418)">
					<path id="path3024" fill="#FEE4C9" d="M168.2-43.2c1,16.3,1,25.7,3.3,28c1.8,1.8,6.2,2.5,13.8,3.1c-8.3,0.7-11.7,1.1-13.9,3.3
						c-2.2,2.2-2.6,5.8-3.2,14.6c-0.5-8.6-0.8-12-3-14.5c-2.3-2.6-5.3-2.8-14.1-3.5c8-0.6,11.6-1.1,13.7-3.2
						C167.4-17.7,167.2-26.8,168.2-43.2"/>
				</g>
				<g id="g3026" transform="translate(575.2813,35.1426)">
					<path id="path3028" fill="#FDE4CA" d="M168.2-43.2c1,16.3,1,25.8,3.3,28c1.8,1.7,6.2,2.5,13.8,3.1c-8.3,0.7-11.7,1.1-13.9,3.3
						c-2.2,2.2-2.6,5.8-3.1,14.6c-0.5-8.6-0.8-12.1-3-14.5c-2.3-2.5-5.3-2.8-14.1-3.5c8-0.6,11.7-1.1,13.8-3.2
						C167.4-17.7,167.2-26.8,168.2-43.2"/>
				</g>
				<g id="g3030" transform="translate(575.2813,35.1434)">
					<path id="path3032" fill="#FEE5CB" d="M168.2-43.2c1,16.2,1,25.8,3.3,28c1.8,1.7,6.2,2.5,13.8,3.1c-8.3,0.7-11.7,1.1-13.9,3.3
						c-2.2,2.1-2.6,5.9-3.1,14.6c-0.5-8.6-0.8-12.1-3-14.5c-2.3-2.5-5.4-2.8-14.1-3.5c7.9-0.6,11.7-1.1,13.8-3.2
						C167.4-17.7,167.2-26.8,168.2-43.2"/>
				</g>
				<g id="g3034" transform="translate(575.2813,35.1442)">
					<path id="path3036" fill="#FEE5CB" d="M168.2-43.2c1,16.2,1,25.8,3.3,28c1.8,1.7,6.3,2.5,13.8,3.1c-8.3,0.7-11.7,1.1-14,3.3
						c-2.2,2.1-2.5,5.9-3.1,14.7c-0.5-8.6-0.8-12.1-3-14.5c-2.3-2.5-5.4-2.7-14.1-3.4c7.9-0.6,11.7-1.1,13.8-3.1
						C167.4-17.6,167.2-26.9,168.2-43.2"/>
				</g>
				<g id="g3038" transform="translate(575.2813,35.145)">
					<path id="path3040" fill="#FEE5CC" d="M168.2-43.2c1,16.2,1,25.8,3.2,28c1.7,1.7,6.3,2.4,13.8,3c-8.3,0.6-11.8,1.1-14,3.3
						c-2.2,2.1-2.5,5.9-3.1,14.7c-0.5-8.6-0.8-12.2-2.9-14.5c-2.3-2.5-5.4-2.7-14.1-3.4c7.9-0.6,11.7-1.1,13.8-3.1
						C167.4-17.6,167.2-26.9,168.2-43.2"/>
				</g>
				<g id="g3042" transform="translate(575.2813,35.1458)">
					<path id="path3044" fill="#FEE5CC" d="M168.2-43.2c1,16.1,1,25.9,3.2,28.1c1.7,1.7,6.3,2.4,13.8,3c-8.2,0.6-11.8,1.1-14,3.2
						c-2.2,2.1-2.5,5.9-3.1,14.7c-0.5-8.5-0.8-12.2-2.9-14.5c-2.3-2.5-5.5-2.7-14.1-3.4c7.9-0.6,11.8-1.1,13.8-3.1
						C167.4-17.6,167.2-26.9,168.2-43.2"/>
				</g>
				<g id="g3046" transform="translate(575.2813,35.1465)">
					<path id="path3048" fill="#FEE6CD" d="M168.2-43.2c1,16.1,1,25.9,3.2,28.1c1.7,1.7,6.3,2.4,13.8,3c-8.2,0.6-11.8,1.1-14,3.2
						c-2.1,2.1-2.5,6-3,14.7c-0.5-8.5-0.8-12.2-2.9-14.5c-2.2-2.5-5.5-2.7-14.1-3.4c7.8-0.6,11.8-1.1,13.8-3.1
						C167.4-17.5,167.2-27,168.2-43.2"/>
				</g>
				<g id="g3050" transform="translate(575.2813,35.1474)">
					<path id="path3052" fill="#FEE6CE" d="M168.2-43.2c1,16.1,1,25.9,3.2,28.1c1.7,1.7,6.4,2.4,13.9,3c-8.2,0.6-11.8,1.1-14,3.2
						c-2.1,2.1-2.5,6-3,14.7c-0.5-8.5-0.8-12.2-2.9-14.6c-2.2-2.5-5.5-2.7-14.2-3.4c7.8-0.6,11.8-1,13.8-3.1
						C167.4-17.5,167.2-27,168.2-43.2"/>
				</g>
				<g id="g3054" transform="translate(575.2813,35.1482)">
					<path id="path3056" fill="#FEE7CF" d="M168.2-43.2c1,16,1,25.9,3.2,28.1c1.7,1.7,6.4,2.4,13.9,3c-8.2,0.6-11.9,1.1-14,3.2
						c-2.1,2.1-2.5,6-3,14.7c-0.5-8.5-0.8-12.3-2.9-14.6c-2.2-2.4-5.6-2.7-14.2-3.3c7.8-0.6,11.8-1,13.9-3
						C167.4-17.5,167.2-27,168.2-43.2"/>
				</g>
				<g id="g3058" transform="translate(575.2813,35.149)">
					<path id="path3060" fill="#FEE7D0" d="M168.2-43.2c1,16,1,25.9,3.2,28.1c1.7,1.7,6.4,2.4,13.9,3c-8.2,0.6-11.9,1.1-14,3.2
						c-2.1,2.1-2.5,6.1-3,14.7c-0.5-8.5-0.8-12.3-2.9-14.6c-2.2-2.4-5.6-2.6-14.2-3.3c7.8-0.6,11.8-1,13.9-3
						C167.4-17.4,167.2-27,168.2-43.2"/>
				</g>
				<g id="g3062" transform="translate(575.2813,35.1498)">
					<path id="path3064" fill="#FEE8D1" d="M168.2-43.2c1,16,1,26,3.1,28.1c1.7,1.7,6.5,2.4,13.9,2.9c-8.2,0.6-11.9,1.1-14.1,3.2
						c-2.1,2.1-2.4,6.1-3,14.8c-0.5-8.5-0.8-12.3-2.8-14.6c-2.2-2.4-5.6-2.6-14.2-3.3c7.7-0.6,11.9-1,13.9-3
						C167.4-17.4,167.2-27.1,168.2-43.2"/>
				</g>
				<g id="g3066" transform="translate(575.2813,35.1506)">
					<path id="path3068" fill="#FEE8D2" d="M168.2-43.2c1,16,1,26,3.1,28.1c1.7,1.7,6.5,2.3,13.9,2.9c-8.1,0.6-11.9,1.1-14.1,3.1
						c-2.1,2-2.4,6.1-3,14.8c-0.5-8.4-0.8-12.4-2.8-14.6c-2.2-2.4-5.7-2.6-14.2-3.3c7.7-0.6,11.9-1,13.9-3
						C167.4-17.4,167.2-27.1,168.2-43.2"/>
				</g>
				<g id="g3070" transform="translate(575.2813,35.1514)">
					<path id="path3072" fill="#FEE8D2" d="M168.2-43.2c1,15.9,1,26,3.1,28.2c1.7,1.7,6.5,2.3,13.9,2.9c-8.1,0.6-12,1-14.1,3.1
						c-2.1,2-2.4,6.2-2.9,14.8c-0.5-8.4-0.8-12.4-2.8-14.6c-2.2-2.4-5.7-2.6-14.2-3.3c7.7-0.6,11.9-1,13.9-3
						C167.4-17.4,167.2-27.1,168.2-43.2"/>
				</g>
				<g id="g3074" transform="translate(575.2813,35.1522)">
					<path id="path3076" fill="#FEE9D3" d="M168.2-43.2c1,15.9,0.9,26,3.1,28.2c1.7,1.7,6.6,2.3,13.9,2.9c-8.1,0.6-12,1-14.1,3.1
						c-2.1,2-2.4,6.2-2.9,14.8c-0.5-8.4-0.8-12.4-2.8-14.7c-2.1-2.4-5.7-2.6-14.2-3.2c7.7-0.6,11.9-1,13.9-3
						C167.4-17.3,167.2-27.2,168.2-43.2"/>
				</g>
				<g id="g3078" transform="translate(575.2813,35.153)">
					<path id="path3080" fill="#FEE9D4" d="M168.2-43.2c1,15.9,0.9,26.1,3.1,28.2c1.7,1.7,6.6,2.3,13.9,2.9c-8.1,0.6-12,1-14.1,3.1
						c-2.1,2-2.4,6.2-2.9,14.8c-0.5-8.4-0.8-12.4-2.8-14.7c-2.1-2.4-5.8-2.6-14.2-3.2c7.7-0.6,12-1,13.9-2.9
						C167.4-17.3,167.2-27.2,168.2-43.2"/>
				</g>
				<g id="g3082" transform="translate(575.2813,35.1538)">
					<path id="path3084" fill="#FEE9D4" d="M168.2-43.2c1,15.8,0.9,26.1,3.1,28.2c1.7,1.7,6.6,2.3,14,2.8c-8.1,0.6-12,1-14.1,3.1
						c-2,2-2.4,6.3-2.9,14.8c-0.5-8.4-0.7-12.5-2.8-14.7c-2.1-2.3-5.8-2.5-14.3-3.2c7.6-0.6,12-1,13.9-2.9
						C167.4-17.3,167.2-27.2,168.2-43.2"/>
				</g>
				<g id="g3086" transform="translate(575.2813,35.1546)">
					<path id="path3088" fill="#FEEAD5" d="M168.2-43.2c1,15.8,0.9,26.1,3,28.2c1.7,1.7,6.7,2.3,14,2.8c-8.1,0.6-12.1,1-14.1,3
						c-2,2-2.3,6.3-2.9,14.9c-0.5-8.4-0.7-12.5-2.7-14.7c-2.1-2.3-5.8-2.5-14.3-3.2c7.6-0.6,12-1,14-2.9
						C167.4-17.2,167.2-27.3,168.2-43.2"/>
				</g>
				<g id="g3090" transform="translate(575.2813,35.1554)">
					<path id="path3092" fill="#FEEAD6" d="M168.2-43.1c1,15.8,0.9,26.1,3,28.2c1.7,1.7,6.7,2.2,14,2.8c-8,0.6-12.1,1-14.1,3
						c-2,2-2.3,6.3-2.9,14.9c-0.5-8.3-0.7-12.5-2.7-14.7c-2.1-2.3-5.9-2.5-14.3-3.2c7.6-0.6,12-0.9,14-2.9
						C167.4-17.2,167.2-27.3,168.2-43.1"/>
				</g>
				<g id="g3094" transform="translate(575.2813,35.1562)">
					<path id="path3096" fill="#FEEBD7" d="M168.2-43.1c1,15.7,0.9,26.2,3,28.2c1.7,1.7,6.7,2.2,14,2.8c-8,0.6-12.1,1-14.2,3
						c-2,2-2.3,6.4-2.8,14.9c-0.5-8.3-0.7-12.6-2.7-14.7c-2.1-2.3-5.9-2.5-14.3-3.1c7.6-0.6,12-0.9,14-2.9
						C167.4-17.2,167.2-27.3,168.2-43.1"/>
				</g>
				<g id="g3098" transform="translate(575.2813,35.157)">
					<path id="path3100" fill="#FEEBD7" d="M168.2-43.1c1,15.7,0.9,26.2,3,28.3c1.7,1.7,6.8,2.2,14,2.8c-8,0.6-12.1,1-14.2,3
						c-2,2-2.3,6.4-2.8,14.9c-0.5-8.3-0.7-12.6-2.7-14.8c-2.1-2.3-5.9-2.5-14.3-3.1c7.5-0.6,12.1-0.9,14-2.8
						C167.5-17.1,167.2-27.3,168.2-43.1"/>
				</g>
				<g id="g3102" transform="translate(575.2813,35.1577)">
					<path id="path3104" fill="#FEECD8" d="M168.2-43.1c1,15.7,0.9,26.2,3,28.3c1.7,1.7,6.8,2.2,14,2.8c-8,0.6-12.2,1-14.2,3
						c-2,2-2.3,6.4-2.8,14.9c-0.5-8.3-0.7-12.6-2.7-14.8c-2-2.3-6-2.5-14.3-3.1c7.5-0.6,12.1-0.9,14-2.8
						C167.5-17.1,167.2-27.4,168.2-43.1"/>
				</g>
				<g id="g3106" transform="translate(575.2813,35.1585)">
					<path id="path3108" fill="#FEECD9" d="M168.2-43.1c1,15.6,0.9,26.2,3,28.3c1.7,1.7,6.8,2.2,14,2.7c-8,0.6-12.2,1-14.2,2.9
						c-2,1.9-2.3,6.5-2.8,14.9c-0.5-8.3-0.7-12.6-2.7-14.8c-2-2.2-6-2.4-14.3-3.1c7.5-0.6,12.1-0.9,14-2.8
						C167.5-17.1,167.2-27.4,168.2-43.1"/>
				</g>
				<g id="g3110" transform="translate(575.2813,35.1593)">
					<path id="path3112" fill="#FEECDA" d="M168.2-43.1c1,15.6,0.9,26.3,2.9,28.3c1.7,1.7,6.8,2.2,14.1,2.7c-8,0.6-12.2,1-14.2,2.9
						c-2,1.9-2.2,6.5-2.8,14.9c-0.5-8.3-0.7-12.7-2.6-14.8c-2-2.2-6-2.4-14.3-3.1c7.5-0.6,12.1-0.9,14-2.8
						C167.5-17,167.3-27.4,168.2-43.1"/>
				</g>
				<g id="g3114" transform="translate(575.2813,35.1601)">
					<path id="path3116" fill="#FEEDDB" d="M168.2-43.1c1,15.6,0.9,26.3,2.9,28.3c1.7,1.6,6.9,2.1,14.1,2.7
						c-7.9,0.6-12.2,1-14.2,2.9c-2,1.9-2.2,6.5-2.8,15c-0.5-8.2-0.7-12.7-2.6-14.8c-2-2.2-6.1-2.4-14.4-3.1
						c7.5-0.6,12.2-0.9,14.1-2.8C167.5-17,167.3-27.5,168.2-43.1"/>
				</g>
				<g id="g3118" transform="translate(575.2813,35.1609)">
					<path id="path3120" fill="#FEEDDC" d="M168.2-43.1c1,15.5,0.9,26.3,2.9,28.3c1.7,1.6,6.9,2.1,14.1,2.7
						c-7.9,0.6-12.3,1-14.2,2.9c-2,1.9-2.2,6.5-2.7,15c-0.5-8.2-0.7-12.7-2.6-14.8c-2-2.2-6.1-2.4-14.4-3c7.4-0.6,12.2-0.9,14.1-2.7
						C167.5-17,167.3-27.5,168.2-43.1"/>
				</g>
				<g id="g3122" transform="translate(575.2813,35.1618)">
					<path id="path3124" fill="#FFEEDD" d="M168.2-43.1c1,15.5,0.9,26.3,2.9,28.3c1.7,1.6,6.9,2.1,14.1,2.7
						c-7.9,0.6-12.3,1-14.3,2.9c-1.9,1.9-2.2,6.6-2.7,15c-0.5-8.2-0.7-12.8-2.6-14.8c-2-2.2-6.1-2.4-14.4-3
						c7.4-0.6,12.2-0.9,14.1-2.7C167.5-17,167.3-27.5,168.2-43.1"/>
				</g>
				<g id="g3126" transform="translate(575.2813,35.1626)">
					<path id="path3128" fill="#FFEEDE" d="M168.2-43.1c1,15.5,0.8,26.4,2.9,28.4c1.7,1.6,7,2.1,14.1,2.7
						c-7.9,0.6-12.3,0.9-14.3,2.9c-1.9,1.9-2.2,6.6-2.7,15c-0.5-8.2-0.7-12.8-2.6-14.9c-2-2.2-6.2-2.3-14.4-3
						c7.4-0.6,12.2-0.9,14.1-2.7C167.5-16.9,167.3-27.6,168.2-43.1"/>
				</g>
				<g id="g3130" transform="translate(575.2813,35.1634)">
					<path id="path3132" fill="#FFEFDE" d="M168.2-43.1c1,15.4,0.8,26.4,2.8,28.4c1.6,1.6,7,2.1,14.1,2.6
						c-7.9,0.6-12.3,0.9-14.3,2.8c-1.9,1.9-2.2,6.6-2.7,15c-0.5-8.2-0.7-12.8-2.6-14.9c-2-2.2-6.2-2.3-14.4-3
						c7.4-0.6,12.2-0.8,14.1-2.7C167.5-16.9,167.3-27.6,168.2-43.1"/>
				</g>
				<g id="g3134" transform="translate(575.2813,35.1642)">
					<path id="path3136" fill="#FFEFDF" d="M168.2-43.1c1,15.4,0.8,26.4,2.8,28.4c1.6,1.6,7,2.1,14.1,2.6
						c-7.9,0.6-12.4,0.9-14.3,2.8c-1.9,1.9-2.1,6.7-2.7,15c-0.5-8.2-0.7-12.8-2.5-14.9c-1.9-2.1-6.2-2.3-14.4-3
						c7.3-0.6,12.3-0.8,14.1-2.7C167.5-16.9,167.3-27.6,168.2-43.1"/>
				</g>
				<g id="g3138" transform="translate(575.2813,35.165)">
					<path id="path3140" fill="#FFF0E0" d="M168.2-43.1c1,15.4,0.8,26.4,2.8,28.4c1.6,1.6,7.1,2,14.2,2.6
						c-7.8,0.6-12.4,0.9-14.3,2.8c-1.9,1.9-2.1,6.7-2.7,15.1c-0.5-8.1-0.7-12.9-2.5-14.9c-1.9-2.1-6.2-2.3-14.4-2.9
						c7.3-0.6,12.3-0.8,14.1-2.7C167.5-16.8,167.3-27.7,168.2-43.1"/>
				</g>
				<g id="g3142" transform="translate(575.2813,35.1658)">
					<path id="path3144" fill="#FFF0E0" d="M168.2-43.1c1,15.4,0.8,26.5,2.8,28.4c1.6,1.6,7.1,2,14.2,2.6
						c-7.8,0.6-12.4,0.9-14.3,2.8c-1.9,1.9-2.1,6.7-2.6,15.1c-0.5-8.1-0.7-12.9-2.5-14.9c-1.9-2.1-6.3-2.3-14.4-2.9
						c7.3-0.6,12.3-0.8,14.1-2.6C167.5-16.8,167.3-27.7,168.2-43.1"/>
				</g>
				<g id="g3146" transform="translate(575.2813,35.1666)">
					<path id="path3148" fill="#FFF0E1" d="M168.2-43.1c1,15.3,0.8,26.5,2.8,28.4c1.6,1.6,7.1,2,14.2,2.6
						c-7.8,0.6-12.4,0.9-14.3,2.8c-1.9,1.8-2.1,6.8-2.6,15.1c-0.5-8.1-0.7-12.9-2.5-14.9c-1.9-2.1-6.3-2.3-14.5-2.9
						c7.3-0.6,12.3-0.8,14.2-2.6C167.5-16.8,167.3-27.7,168.2-43.1"/>
				</g>
				<g id="g3150" transform="translate(575.2813,35.1673)">
					<path id="path3152" fill="#FFF1E2" d="M168.2-43.1c1,15.3,0.8,26.5,2.8,28.4c1.6,1.6,7.2,2,14.2,2.5
						c-7.8,0.6-12.5,0.9-14.3,2.7c-1.9,1.8-2.1,6.8-2.6,15.1c-0.5-8.1-0.7-13-2.5-14.9c-1.9-2.1-6.3-2.2-14.5-2.9
						c7.2-0.6,12.4-0.8,14.2-2.6C167.5-16.7,167.3-27.7,168.2-43.1"/>
				</g>
				<g id="g3154" transform="translate(575.2813,35.1681)">
					<path id="path3156" fill="#FFF1E3" d="M168.2-43.1c1,15.3,0.8,26.5,2.7,28.5c1.6,1.6,7.2,2,14.2,2.5
						c-7.8,0.6-12.5,0.9-14.4,2.7c-1.9,1.8-2.1,6.8-2.6,15.1c-0.5-8.1-0.7-13-2.5-15c-1.9-2.1-6.4-2.2-14.5-2.9
						c7.2-0.6,12.4-0.8,14.2-2.6C167.5-16.7,167.3-27.8,168.2-43.1"/>
				</g>
				<g id="g3158" transform="translate(575.2813,35.1689)">
					<path id="path3160" fill="#FFF1E4" d="M168.2-43.1c1,15.2,0.8,26.5,2.7,28.5c1.6,1.6,7.2,2,14.2,2.5
						c-7.7,0.6-12.5,0.9-14.4,2.7c-1.8,1.8-2.1,6.9-2.6,15.1c-0.5-8.1-0.7-13-2.5-15c-1.9-2.1-6.4-2.2-14.5-2.8
						c7.2-0.6,12.4-0.8,14.2-2.6C167.5-16.7,167.3-27.8,168.2-43.1"/>
				</g>
				<g id="g3162" transform="translate(575.2813,35.1697)">
					<path id="path3164" fill="#FFF2E4" d="M168.2-43.1c1,15.2,0.8,26.6,2.7,28.5c1.6,1.6,7.2,1.9,14.2,2.5
						c-7.7,0.6-12.5,0.9-14.4,2.7c-1.8,1.8-2,6.9-2.6,15.1c-0.5-8-0.7-13-2.4-15c-1.8-2-6.4-2.2-14.5-2.8c7.2-0.6,12.4-0.8,14.2-2.5
						C167.5-16.7,167.3-27.8,168.2-43.1"/>
				</g>
				<g id="g3166" transform="translate(575.2813,35.1705)">
					<path id="path3168" fill="#FFF2E5" d="M168.2-43.1c1,15.2,0.8,26.6,2.7,28.5c1.6,1.6,7.3,1.9,14.3,2.5
						c-7.7,0.6-12.6,0.9-14.4,2.7c-1.8,1.8-2,6.9-2.5,15.2c-0.5-8-0.7-13.1-2.4-15c-1.8-2-6.5-2.2-14.5-2.8
						c7.2-0.6,12.5-0.8,14.2-2.5C167.5-16.6,167.3-27.9,168.2-43.1"/>
				</g>
				<g id="g3170" transform="translate(575.2813,35.1713)">
					<path id="path3172" fill="#FFF3E6" d="M168.2-43.1c1,15.1,0.8,26.6,2.7,28.5c1.6,1.6,7.3,1.9,14.3,2.5
						c-7.7,0.6-12.6,0.9-14.4,2.6c-1.8,1.8-2,6.9-2.5,15.2c-0.5-8-0.7-13.1-2.4-15c-1.8-2-6.5-2.2-14.5-2.8
						c7.1-0.6,12.5-0.7,14.2-2.5C167.5-16.6,167.3-27.9,168.2-43.1"/>
				</g>
				<g id="g3174" transform="translate(575.2813,35.1721)">
					<path id="path3176" fill="#FFF3E7" d="M168.2-43.1c1,15.1,0.8,26.6,2.7,28.5c1.6,1.6,7.3,1.9,14.3,2.4
						c-7.7,0.6-12.6,0.9-14.4,2.6c-1.8,1.8-2,7-2.5,15.2c-0.5-8-0.7-13.1-2.4-15c-1.8-2-6.5-2.1-14.5-2.8c7.1-0.6,12.5-0.7,14.3-2.5
						C167.5-16.6,167.3-27.9,168.2-43.1"/>
				</g>
				<g id="g3178" transform="translate(575.2813,35.1729)">
					<path id="path3180" fill="#FFF4E8" d="M168.2-43.1c1,15.1,0.7,26.7,2.6,28.5c1.6,1.6,7.4,1.9,14.3,2.4
						c-7.7,0.6-12.7,0.9-14.4,2.6c-1.8,1.8-2,7-2.5,15.2c-0.5-8-0.7-13.2-2.4-15.1c-1.8-2-6.6-2.1-14.6-2.8
						c7.1-0.6,12.5-0.7,14.3-2.5C167.5-16.5,167.3-28,168.2-43.1"/>
				</g>
				<g id="g3182" transform="translate(575.2813,35.1738)">
					<path id="path3184" fill="#FFF4E8" d="M168.2-43.1c0.9,15,0.7,26.7,2.6,28.5c1.6,1.6,7.4,1.9,14.3,2.4
						c-7.6,0.6-12.7,0.8-14.4,2.6c-1.8,1.7-2,7-2.5,15.2c-0.5-7.9-0.7-13.2-2.4-15.1c-1.8-2-6.6-2.1-14.6-2.7
						c7.1-0.6,12.5-0.7,14.3-2.4C167.5-16.5,167.3-28,168.2-43.1"/>
				</g>
				<g id="g3186" transform="translate(575.2813,35.1746)">
					<path id="path3188" fill="#FFF4E9" d="M168.2-43.1c0.9,15,0.7,26.7,2.6,28.6c1.6,1.6,7.4,1.8,14.3,2.4
						c-7.6,0.6-12.7,0.8-14.5,2.6c-1.8,1.7-1.9,7.1-2.5,15.2c-0.5-7.9-0.6-13.2-2.3-15.1c-1.8-1.9-6.6-2.1-14.6-2.7
						c7-0.6,12.6-0.7,14.3-2.4C167.6-16.5,167.3-28,168.2-43.1"/>
				</g>
				<g id="g3190" transform="translate(575.2813,35.1754)">
					<path id="path3192" fill="#FFF4EA" d="M168.2-43.1c0.9,15,0.7,26.7,2.6,28.6c1.6,1.6,7.5,1.8,14.3,2.4
						c-7.6,0.6-12.7,0.8-14.5,2.5c-1.8,1.7-1.9,7.1-2.4,15.3c-0.5-7.9-0.6-13.3-2.3-15.1c-1.7-1.9-6.7-2.1-14.6-2.7
						c7-0.6,12.6-0.7,14.3-2.4C167.6-16.4,167.3-28,168.2-43.1"/>
				</g>
				<g id="g3194" transform="translate(575.2813,35.1762)">
					<path id="path3196" fill="#FFF5EA" d="M168.2-43.1c0.9,14.9,0.7,26.8,2.6,28.6c1.6,1.6,7.5,1.8,14.4,2.3
						c-7.6,0.6-12.8,0.8-14.5,2.5c-1.8,1.7-1.9,7.1-2.4,15.3c-0.5-7.9-0.6-13.3-2.3-15.1c-1.7-1.9-6.7-2.1-14.6-2.7
						c7-0.6,12.6-0.7,14.3-2.4C167.6-16.4,167.3-28.1,168.2-43.1"/>
				</g>
				<g id="g3198" transform="translate(575.2813,35.177)">
					<path id="path3200" fill="#FFF5EB" d="M168.2-43.1c0.9,14.9,0.7,26.8,2.5,28.6c1.6,1.6,7.5,1.8,14.4,2.3
						c-7.6,0.6-12.8,0.8-14.5,2.5c-1.7,1.7-1.9,7.2-2.4,15.3c-0.5-7.9-0.6-13.3-2.3-15.1c-1.7-1.9-6.7-2-14.6-2.7
						c7-0.6,12.6-0.7,14.3-2.4C167.6-16.4,167.3-28.1,168.2-43.1"/>
				</g>
				<g id="g3202" transform="translate(575.2813,35.1777)">
					<path id="path3204" fill="#FFF6EC" d="M168.2-43.1c0.9,14.9,0.7,26.8,2.5,28.6c1.6,1.6,7.6,1.8,14.4,2.3
						c-7.6,0.6-12.8,0.8-14.5,2.5c-1.7,1.7-1.9,7.2-2.4,15.3c-0.5-7.9-0.6-13.3-2.3-15.1c-1.7-1.9-6.8-2-14.6-2.6
						c7-0.5,12.7-0.7,14.3-2.3C167.6-16.3,167.3-28.1,168.2-43.1"/>
				</g>
				<g id="g3206" transform="translate(575.2813,35.1785)">
					<path id="path3208" fill="#FFF6ED" d="M168.2-43.1c0.9,14.9,0.7,26.8,2.5,28.6c1.6,1.6,7.6,1.8,14.4,2.3
						c-7.5,0.6-12.8,0.8-14.5,2.5c-1.7,1.7-1.9,7.2-2.4,15.3c-0.5-7.8-0.6-13.4-2.3-15.2c-1.7-1.9-6.8-2-14.6-2.6
						c6.9-0.5,12.7-0.7,14.4-2.3C167.6-16.3,167.3-28.2,168.2-43.1"/>
				</g>
				<g id="g3210" transform="translate(575.2813,35.1793)">
					<path id="path3212" fill="#FFF7EE" d="M168.2-43.1c0.9,14.8,0.7,26.9,2.5,28.7c1.6,1.5,7.6,1.7,14.4,2.3
						c-7.5,0.6-12.9,0.8-14.5,2.4c-1.7,1.7-1.9,7.3-2.4,15.3c-0.5-7.8-0.6-13.4-2.2-15.2c-1.7-1.9-6.8-2-14.7-2.6
						c6.9-0.5,12.7-0.6,14.4-2.3C167.6-16.3,167.3-28.2,168.2-43.1"/>
				</g>
				<g id="g3214" transform="translate(575.2813,35.1801)">
					<path id="path3216" fill="#FFF7EF" d="M168.2-43.1c0.9,14.8,0.7,26.9,2.5,28.7c1.6,1.5,7.7,1.7,14.4,2.3
						c-7.5,0.6-12.9,0.8-14.6,2.4c-1.7,1.7-1.8,7.3-2.3,15.3c-0.5-7.8-0.6-13.4-2.2-15.2c-1.7-1.8-6.9-2-14.7-2.6
						c6.9-0.5,12.7-0.6,14.4-2.3C167.6-16.3,167.3-28.2,168.2-43.1"/>
				</g>
				<g id="g3218" transform="translate(575.2813,35.1809)">
					<path id="path3220" fill="#FFF7F0" d="M168.2-43.1c0.9,14.8,0.7,26.9,2.5,28.7c1.5,1.5,7.7,1.7,14.4,2.2
						c-7.5,0.6-12.9,0.8-14.6,2.4c-1.7,1.7-1.8,7.3-2.3,15.4c-0.5-7.8-0.6-13.4-2.2-15.2c-1.7-1.8-6.9-2-14.7-2.6
						c6.9-0.5,12.7-0.6,14.4-2.3C167.6-16.2,167.3-28.3,168.2-43.1"/>
				</g>
				<g id="g3222" transform="translate(575.2813,35.1817)">
					<path id="path3224" fill="#FFF7F0" d="M168.2-43.1c0.9,14.7,0.7,26.9,2.4,28.7c1.5,1.5,7.7,1.7,14.4,2.2
						c-7.5,0.6-12.9,0.8-14.6,2.4c-1.7,1.6-1.8,7.4-2.3,15.4c-0.5-7.8-0.6-13.5-2.2-15.2c-1.6-1.8-6.9-1.9-14.7-2.5
						c6.8-0.5,12.8-0.6,14.4-2.2C167.6-16.2,167.3-28.3,168.2-43.1"/>
				</g>
				<g id="g3226" transform="translate(575.2813,35.1825)">
					<path id="path3228" fill="#FFF8F1" d="M168.2-43.1c0.9,14.7,0.7,27,2.4,28.7c1.5,1.5,7.7,1.7,14.5,2.2
						c-7.5,0.6-13,0.8-14.6,2.4c-1.7,1.6-1.8,7.4-2.3,15.4c-0.5-7.8-0.6-13.5-2.2-15.2c-1.6-1.8-7-1.9-14.7-2.5
						c6.8-0.5,12.8-0.6,14.4-2.2C167.6-16.2,167.3-28.3,168.2-43.1"/>
				</g>
				<g id="g3230" transform="translate(575.2813,35.1833)">
					<path id="path3232" fill="#FFF8F1" d="M168.2-43c0.9,14.7,0.6,27,2.4,28.7c1.5,1.5,7.8,1.7,14.5,2.2c-7.4,0.6-13,0.8-14.6,2.4
						c-1.7,1.6-1.8,7.4-2.3,15.4c-0.5-7.7-0.6-13.5-2.2-15.2c-1.6-1.8-7-1.9-14.7-2.5c6.8-0.5,12.8-0.6,14.4-2.2
						C167.6-16.1,167.3-28.4,168.2-43"/>
				</g>
				<g id="g3234" transform="translate(575.2813,35.1841)">
					<path id="path3236" fill="#FFF9F2" d="M168.2-43c0.9,14.6,0.6,27,2.4,28.7c1.5,1.5,7.8,1.6,14.5,2.2c-7.4,0.6-13,0.8-14.6,2.3
						c-1.6,1.6-1.8,7.4-2.3,15.4c-0.5-7.7-0.6-13.6-2.1-15.3c-1.6-1.8-7-1.9-14.7-2.5c6.8-0.5,12.8-0.6,14.4-2.2
						C167.6-16.1,167.3-28.4,168.2-43"/>
				</g>
				<g id="g3238" transform="translate(575.2813,35.185)">
					<path id="path3240" fill="#FFF9F3" d="M168.2-43c0.9,14.6,0.6,27,2.4,28.8c1.5,1.5,7.8,1.6,14.5,2.2c-7.4,0.6-13,0.7-14.6,2.3
						c-1.6,1.6-1.7,7.5-2.2,15.4c-0.5-7.7-0.6-13.6-2.1-15.3c-1.6-1.8-7-1.9-14.7-2.5c6.7-0.5,12.9-0.6,14.5-2.2
						C167.6-16.1,167.3-28.4,168.2-43"/>
				</g>
				<g id="g3242" transform="translate(575.2813,35.1858)">
					<path id="path3244" fill="#FFFAF4" d="M168.2-43c0.9,14.6,0.6,27.1,2.4,28.8c1.5,1.5,7.9,1.6,14.5,2.1
						c-7.4,0.6-13.1,0.7-14.6,2.3c-1.6,1.6-1.7,7.5-2.2,15.4c-0.5-7.7-0.6-13.6-2.1-15.3c-1.6-1.7-7.1-1.8-14.8-2.4
						c6.7-0.5,12.9-0.6,14.5-2.2C167.6-16,167.3-28.4,168.2-43"/>
				</g>
				<g id="g3246" transform="translate(575.2813,35.1866)">
					<path id="path3248" fill="#FFFAF5" d="M168.2-43c0.9,14.5,0.6,27.1,2.3,28.8c1.5,1.5,7.9,1.6,14.5,2.1
						c-7.4,0.6-13.1,0.7-14.7,2.3c-1.6,1.6-1.7,7.5-2.2,15.5c-0.5-7.7-0.6-13.7-2.1-15.3c-1.6-1.7-7.1-1.8-14.8-2.4
						c6.7-0.5,12.9-0.6,14.5-2.1C167.6-16,167.3-28.5,168.2-43"/>
				</g>
				<g id="g3250" transform="translate(575.2813,35.1874)">
					<path id="path3252" fill="#FFFAF6" d="M168.2-43c0.9,14.5,0.6,27.1,2.3,28.8c1.5,1.5,7.9,1.6,14.5,2.1
						c-7.4,0.6-13.1,0.7-14.7,2.3c-1.6,1.6-1.7,7.6-2.2,15.5c-0.5-7.7-0.6-13.7-2.1-15.3c-1.5-1.7-7.1-1.8-14.8-2.4
						c6.7-0.5,12.9-0.5,14.5-2.1C167.6-16,167.3-28.5,168.2-43"/>
				</g>
				<g id="g3254" transform="translate(575.2813,35.1881)">
					<path id="path3256" fill="#FFFAF6" d="M168.2-43c0.9,14.5,0.6,27.1,2.3,28.8c1.5,1.5,8,1.6,14.6,2.1
						c-7.3,0.6-13.1,0.7-14.7,2.2c-1.6,1.6-1.7,7.6-2.2,15.5c-0.5-7.6-0.6-13.7-2.1-15.3c-1.5-1.7-7.2-1.8-14.8-2.4
						c6.7-0.5,12.9-0.5,14.5-2.1C167.6-15.9,167.3-28.5,168.2-43"/>
				</g>
				<g id="g3258" transform="translate(575.2813,35.1889)">
					<path id="path3260" fill="#FFFBF7" d="M168.2-43c0.9,14.4,0.6,27.1,2.3,28.8c1.5,1.5,8,1.5,14.6,2.1
						c-7.3,0.6-13.2,0.7-14.7,2.2c-1.6,1.6-1.7,7.6-2.2,15.5c-0.5-7.6-0.6-13.7-2-15.4c-1.5-1.7-7.2-1.8-14.8-2.4
						c6.6-0.5,13-0.5,14.5-2.1C167.6-15.9,167.3-28.6,168.2-43"/>
				</g>
				<g id="g3262" transform="translate(575.2813,35.1897)">
					<path id="path3264" fill="#FFFBF8" d="M168.2-43c0.9,14.4,0.6,27.2,2.3,28.8c1.5,1.5,8,1.5,14.6,2c-7.3,0.6-13.2,0.7-14.7,2.2
						c-1.6,1.5-1.6,7.7-2.1,15.5c-0.5-7.6-0.6-13.8-2-15.4c-1.5-1.7-7.2-1.8-14.8-2.4c6.6-0.5,13-0.5,14.5-2.1
						C167.6-15.9,167.3-28.6,168.2-43"/>
				</g>
				<g id="g3266" transform="translate(575.2813,35.1905)">
					<path id="path3268" fill="#FFFCF9" d="M168.2-43c0.9,14.4,0.6,27.2,2.2,28.8c1.5,1.5,8.1,1.5,14.6,2
						c-7.3,0.6-13.2,0.7-14.7,2.2c-1.6,1.5-1.6,7.7-2.1,15.5c-0.5-7.6-0.6-13.8-2-15.4c-1.5-1.6-7.3-1.7-14.8-2.3
						c6.6-0.5,13-0.5,14.6-2C167.6-15.9,167.3-28.6,168.2-43"/>
				</g>
				<g id="g3270" transform="translate(575.2813,35.1913)">
					<path id="path3272" fill="#FFFCF9" d="M168.2-43c0.9,14.3,0.6,27.2,2.2,28.9c1.5,1.5,8.1,1.5,14.6,2
						c-7.3,0.6-13.2,0.7-14.7,2.2c-1.6,1.5-1.6,7.7-2.1,15.6c-0.5-7.6-0.6-13.8-2-15.4c-1.5-1.6-7.3-1.7-14.8-2.3
						c6.6-0.5,13-0.5,14.6-2C167.6-15.8,167.3-28.7,168.2-43"/>
				</g>
				<g id="g3274" transform="translate(575.2813,35.1921)">
					<path id="path3276" fill="#FFFDFA" d="M168.2-43c0.9,14.3,0.6,27.2,2.2,28.9c1.5,1.5,8.1,1.5,14.6,2
						c-7.2,0.6-13.3,0.7-14.7,2.1c-1.5,1.5-1.6,7.8-2.1,15.6c-0.5-7.6-0.6-13.8-2-15.4c-1.5-1.6-7.3-1.7-14.9-2.3
						c6.5-0.5,13.1-0.5,14.6-2C167.7-15.8,167.3-28.7,168.2-43"/>
				</g>
				<g id="g3278" transform="translate(575.2813,35.1929)">
					<path id="path3280" fill="#FFFDFB" d="M168.2-43c0.9,14.3,0.6,27.3,2.2,28.9c1.5,1.5,8.2,1.5,14.6,2
						c-7.2,0.6-13.3,0.7-14.8,2.1c-1.5,1.5-1.6,7.8-2.1,15.6c-0.5-7.5-0.6-13.9-2-15.4c-1.4-1.6-7.4-1.7-14.9-2.3
						c6.5-0.5,13.1-0.5,14.6-2C167.7-15.8,167.3-28.7,168.2-43"/>
				</g>
				<g id="g3282" transform="translate(575.2813,35.1937)">
					<path id="path3284" fill="#FFFEFC" d="M168.2-43c0.9,14.3,0.6,27.3,2.2,28.9c1.5,1.5,8.2,1.4,14.7,2
						c-7.2,0.6-13.3,0.7-14.8,2.1c-1.5,1.5-1.6,7.8-2.1,15.6c-0.5-7.5-0.6-13.9-2-15.4c-1.4-1.6-7.4-1.7-14.9-2.3
						c6.5-0.5,13.1-0.5,14.6-2C167.7-15.7,167.3-28.8,168.2-43"/>
				</g>
				<g id="g3286" transform="translate(575.2813,35.1945)">
					<path id="path3288" fill="#FFFEFC" d="M168.2-43c0.9,14.2,0.5,27.3,2.2,28.9c1.5,1.5,8.2,1.4,14.7,1.9
						c-7.2,0.6-13.3,0.7-14.8,2.1c-1.5,1.5-1.5,7.8-2,15.6c-0.5-7.5-0.6-13.9-1.9-15.5c-1.4-1.6-7.4-1.6-14.9-2.2
						c6.5-0.5,13.1-0.5,14.6-1.9C167.7-15.7,167.3-28.8,168.2-43"/>
				</g>
				<g id="g3290" transform="translate(575.2813,35.1953)">
					<path id="path3292" fill="#FFFEFD" d="M168.2-43c0.9,14.2,0.5,27.3,2.1,28.9c1.5,1.5,8.2,1.4,14.7,1.9
						c-7.2,0.6-13.4,0.7-14.8,2.1c-1.5,1.5-1.5,7.9-2,15.6c-0.5-7.5-0.6-14-1.9-15.5c-1.4-1.5-7.5-1.6-14.9-2.2
						c6.4-0.5,13.2-0.5,14.6-1.9C167.7-15.7,167.3-28.8,168.2-43"/>
				</g>
				<g id="g3294" transform="translate(575.2813,35.1961)">
					<path id="path3296" fill="#FFFEFE" d="M168.2-43c0.9,14.2,0.5,27.4,2.1,28.9c1.5,1.5,8.3,1.4,14.7,1.9
						c-7.2,0.6-13.4,0.6-14.8,2c-1.5,1.5-1.5,7.9-2,15.6c-0.5-7.5-0.5-14-1.9-15.5c-1.4-1.5-7.5-1.6-14.9-2.2
						c6.4-0.5,13.2-0.4,14.6-1.9C167.7-15.6,167.4-28.8,168.2-43"/>
				</g>
				<g id="g3298" transform="translate(575.2813,35.1969)">
					<path id="path3300" fill="#FFFFFF" d="M168.2-43c0.9,14.1,0.5,27.4,2.1,29c1.5,1.5,8.3,1.4,14.7,1.9c-7.1,0.6-13.4,0.6-14.8,2
						c-1.5,1.4-1.5,7.9-2,15.7c-0.5-7.5-0.5-14-1.9-15.5c-1.4-1.5-7.5-1.6-14.9-2.2c6.4-0.5,13.2-0.4,14.7-1.9
						C167.7-15.6,167.4-28.9,168.2-43"/>
				</g>
			</g>
		</g>
	</g>
</g>
</svg>
