<?xml version="1.0" encoding="utf-8"?>
<!-- Generator: Adobe Illustrator 19.0.0, SVG Export Plug-In . SVG Version: 6.00 Build 0)  -->
<svg version="1.1" id="Layer_11" xmlns="http://www.w3.org/2000/svg" xmlns:xlink="http://www.w3.org/1999/xlink" x="0px" y="0px"
	 viewBox="0 0 286 286" enable-background="new 0 0 286 286" xml:space="preserve">
<path id="XMLID_14_" fill="#FFFFFF" d="M225.8,143c0.2-0.1,0.4-0.3,0.5-0.4c0.2-0.2,0.4-0.4,0.5-0.6c0.3-0.5,0.6-0.9,1-1.3
	c0.4-0.4,1-1.1,1.5-1.4c5.3-4.9,10.3-10.1,15-15.6c0.2-0.2,0.4-0.5,0.4-0.8c0-0.4-0.3-0.7-0.5-1c-0.2-0.4-0.2-0.9-0.4-1.3
	c-0.3-0.9-0.8-1.8-1.3-2.6c-0.3-0.6-0.7-1.2-1-1.8c-0.3-0.3-0.2-0.9-0.4-1.2c-0.1-0.1-0.4-0.2-0.5-0.3c-0.1-0.2-0.2-0.6-0.2-0.8
	c0-0.1,0-0.1-0.1-0.2c-0.1,0-0.1,0-0.2,0c-0.6,0.1-1.2,0.2-1.8,0.5c-0.6,0.3-0.9,0.4-1.6,0.4c-1.3,0.1-2.6,0.3-3.9,0.6
	c-0.6,0.1-1.2,0.3-1.7,0.1c-1.3-0.5-1.2-2.5-2.3-3.5c-0.5-0.5-0.7-0.5-0.9-1.2c-0.2-0.7-0.5-1.3-0.7-2c-0.1-0.2-0.2-0.5-0.3-0.7
	c-0.1-0.2-0.3-0.3-0.6-0.5c-1.4-0.8-2.9-0.4-4.5-0.3c-1.6,0.1-3.3,0-4.9,0.1c-0.7,0.1-0.7,0.3-0.7,1c0,0.7,0,1.4,0.4,2.1
	c0.2,0.4,0.8,1.1,0.6,1.6c-0.2,0.4-1.2,0.5-1.6,0.6c-1.3,0.4-2.6,0.9-3.8,1.5c-0.7,0.3-1.1,0.8-1.6,1.3c-0.4,0.5-0.9,0.5-1,1.1
	c-0.2,1.6,0.8,3.2,1.4,4.5c0.4,0.9,0.8,1.8,1.2,2.7c0.2,0.5,0.4,1.1,0.2,1.7c-0.1,0.4-0.4,0.6-0.6,0.9c-0.5,0.6-0.6,1.4-1.1,2.1
	c-0.4,0.6-0.8,1.1-1,1.8c-0.3,1-0.7,1.9-1.2,2.8c-0.6,1-1.4,1.6-2.2,2.4c-0.5,0.5-1,0.9-1.6,1.4c-0.5,0.4-0.9,0.7-1.5,1
	c-0.6,0.3-0.8,0.6-1.5,0.6c-0.8,0-1.6-0.1-2.3-0.3c-0.4-0.1-0.7-0.3-1.1-0.1c-0.3,0.1-0.5,0.5-0.7,0.8c-0.6,1.2-1.1,2.4-1.7,3.7
	c-0.6,1.3-1.2,2.5-1.4,3.9c0,0.1,0,0.2,0,0.4c0,0.2,0.1,0.3,0.2,0.4c0.3,0.4,0.4,0.6,0.5,1c0.1,0.6,0.3,1.1,0.5,1.7
	c0.4,0.9,0.9,1.7,0.8,2.6c0,1.1,0,2.2-0.1,3.3c-0.3,2.2-0.9,4.3-1.8,6.4c1,0.7,2.4,0.7,3.6,0.7c0.3,0,0.8-0.1,1.1,0
	c0.3,0.1,0.7,0.6,0.9,0.9c0.5,0.7,0.8,1.5,1.1,2.2c0.2,0.5,0.5,0.9,0.6,1.4c0.1,0.4,0,0.7,0.1,1.1c0.2,1.3,1.4,2,1.7,3.2
	c0.1,0.6,0.2,1,0.5,1.5c0.4,0.6,0.7,1.2,0.9,1.9c0.1,0.2,0.2,0.5,0.3,0.7c0.1,0.2,0.2,0.4,0.4,0.6c0,0.3,0.7,1,0.8,1.2
	c0.3,0.4,0.6,0.8,0.7,1.4c0,0.3,0,1.3,0.7,0.9c1.1-0.5,1.7,0,2.6,0.5c0.4,0.2,0.8,0.5,1.1,0.8c0.3,0.4,0.6,0.8,0.8,1.3
	c0.6,1.2,1.2,2.5,1.6,3.8c0.1,0.5,0.2,0.9,0.4,1.4c0.2,0.4,0.5,0.8,1,1c0.2,0.1,0.4,0.1,0.6,0.1c1,0.1,2.1-0.1,3-0.6
	c0.1-1.7,0.1-3.4,0-5.1c0-0.8-0.1-1.7-0.3-2.5c-0.1-0.6,0-1.1,0-1.7c0-1.5-0.2-3,0.1-4.4c0.1-0.5,0.2-0.9,0.2-1.4
	c0-0.4-0.2-1-0.1-1.4c0.2-0.6,1.6-1.1,2.1-1.5c1.6-1.2,3-2.5,4.3-3.9c0.4-0.4,0.8-0.8,0.9-1.3c0.1-0.3,0.1-0.6,0-0.8
	c-0.1-1.6-0.1-3.2-0.4-4.8c-0.2-1.2-0.4-2.4-0.3-3.6c0.1-1,0.5-2,0.8-2.9c0.3-0.8,0.7-1.6,1.3-2.1c0.2-0.1-0.6-2-0.7-2.2
	c-0.3-0.8-0.6-1.5-1-2.2c-0.3-0.7-0.9-1.4-1.2-2.1C225,143.6,225.4,143.3,225.8,143z"/>
</svg>
