<?xml version="1.0" encoding="utf-8"?>
<!-- Generator: Adobe Illustrator 19.0.0, SVG Export Plug-In . SVG Version: 6.00 Build 0)  -->
<svg version="1.1" id="Layer_5" xmlns="http://www.w3.org/2000/svg" xmlns:xlink="http://www.w3.org/1999/xlink" x="0px" y="0px"
	 viewBox="0 0 286 286" enable-background="new 0 0 286 286" xml:space="preserve">
<path id="XMLID_4_" fill="#FFFFFF" d="M115.7,67.5c-1.3,1.3-3.2,1.9-4.9,2.3c-0.8,0.2-1.8,0.6-2.6,0.5c-1-0.2-1.6-0.5-2.7-0.1
	c-0.9,0.3-1.7,0.9-2.5,1.5c-0.9,0.7-1.8,1.5-2.6,2.4c-0.3,0.3-0.6,0.7-0.8,1.1c-0.3,0.6-0.4,1.2-0.5,1.9c-0.3,3.1,0.6,6.1,1.6,9.1
	c0.3,1.1,0.8,2.1,0.9,3.2c0.1,1.1,0.3,2.3,0.7,3.4c-1.1,0.1-2.1,0.1-3.2-0.1c-0.5,1.4,0.1,3-0.7,4.2c-0.6,0.9-1.8,1.2-2.9,1.4
	c-0.8,0.2-1.7,0.3-2.5,0.5c-0.4,0.1-0.8,0.2-1.2,0.4c-0.6,0.3-0.9,0.9-1.3,1.5c-0.6,1.1-1,2.2-1.6,3.3c-0.7,1.3-1.3,2.6-1.7,4
	c-0.3,1.1-0.4,1.9-1.1,2.9c-1.1,1.6-3.2,2.7-3.7,4.7c-0.2,0.7-0.1,1.6,0.2,2.3c0.6,1.2,1.8,2,2.9,2.7c0.3,0.2,1.2,0.5,1.4,0.9
	c0.2,0.4-0.1,1-0.2,1.4c-0.5,1.7-1.3,3.4-2.2,5c-0.4,0.7-0.9,1.4-1.2,2.1c-0.1,0.2-0.1,0.3-0.1,0.5c0,0.2,0.2,0.4,0.3,0.6
	c1.7,2,3.8,3.6,5.9,5.2c0.9,0.7,1.8,1.3,2.7,1.9c0.4,0.2,0.9,0.5,1.2,0.8c0.4,0.3,0.8,0.6,1.1,1c1.4,1.4,2.9,2.9,4.3,4.3
	c0.5,0.5,1.1,1,1.7,1c0.9-0.1,1.4-0.9,1.8-1.7c1.5-3,3-6,4.4-9c0.1-0.1,0.1-0.3,0.1-0.4c0-0.1-0.1-0.3-0.2-0.4
	c-0.4-0.5-0.7-1.1-1.2-1.5c-0.3-0.2-0.7-0.4-1-0.6c-0.7-0.4-1.1-1-1.6-1.6c-0.6-0.9-0.5-1,0.3-1.7c1.1-1.2,2.3-2.4,3.4-3.7
	c0.2-0.3,0.5-0.5,0.6-0.8c0.6-1.1,0.2-2.4,0.1-3.6c0-1.6,0.6-3.2,1.2-4.7c0.4-1,0.9-2,1.4-3.1c0.2-0.5,0.4-1.7,0.9-2
	c0.5-0.4,1.7-0.3,2.3-0.4c0.3,0,0.6-0.1,0.8-0.2c0.3-0.1,0.5-0.4,0.8-0.4c0.2,0,0.3,0,0.5,0c0.5,0,1,0.1,1.5-0.1
	c0.4-0.1,0.5,5.5,0.5,6.1c1.2,0.2,3.1,0,4.3-0.1c1.7-0.1,3.3-0.9,4.5-2.1c0.9-0.9,2-1.8,2.1-3.1c0-0.5-0.8-5.7-1.2-5.5
	c1.6-1,2.7-2.3,3.7-3.9c1-1.6,1.5-2.1,1.5-4.1c0-1.4,0.5-3,0.7-4.4c0.2-1.3,0.4-2.6,0.3-3.9c-0.1-2.7-1.3-5.2-2.5-7.6
	c-0.2-0.4-0.5-0.9-0.8-1.2c-0.6-0.5-1.4-0.5-2.1-0.6c-1.2-0.2-2.5-0.5-3.6-1c-1.3-0.5-2.5-1.3-3.3-2.5c-0.8-1.2-1.1-2.7-0.4-4
	c-1,0.5-2.3,0.1-3.1-0.8C116.5,69.7,116.1,68.6,115.7,67.5z"/>
</svg>
